\relax 
\providecommand\hyper@newdestlabel[2]{}
\providecommand\HyperFirstAtBeginDocument{\AtBeginDocument}
\HyperFirstAtBeginDocument{\ifx\hyper@anchor\@undefined
\global\let\oldcontentsline\contentsline
\gdef\contentsline#1#2#3#4{\oldcontentsline{#1}{#2}{#3}}
\global\let\oldnewlabel\newlabel
\gdef\newlabel#1#2{\newlabelxx{#1}#2}
\gdef\newlabelxx#1#2#3#4#5#6{\oldnewlabel{#1}{{#2}{#3}}}
\AtEndDocument{\ifx\hyper@anchor\@undefined
\let\contentsline\oldcontentsline
\let\newlabel\oldnewlabel
\fi}
\fi}
\global\let\hyper@last\relax 
\gdef\HyperFirstAtBeginDocument#1{#1}
\providecommand\HyField@AuxAddToFields[1]{}
\providecommand\HyField@AuxAddToCoFields[2]{}
\citation{M03}
\citation{B06}
\citation{K12}
\citation{S13}
\citation{K12}
\citation{S13}
\citation{K12}
\citation{B06}
\citation{Yanny2009,Ruhland2011,B14}
\citation{DrakeStream}
\citation{LM10}
\citation{Gibbons14}
\citation{B14}
\citation{B06}
\citation{Correnti2010}
\newlabel{firstpage}{{}{1}{}{Doc-Start}{}}
\@writefile{toc}{\contentsline {section}{\numberline {1}Introduction}{1}{section.1}}
\citation{Erkal16b}
\citation{MNO2010}
\citation{deBoer2015}
\citation{Erkal16a}
\citation{K12}
\citation{S15}
\citation{S15}
\citation{K14}
\citation{Henden2016}
\citation{SFD98}
\citation{SF11}
\@writefile{lof}{\contentsline {figure}{\numberline {1}{\ignorespaces Density map of MSTO stars from the SDSS DR9 and VST ATLAS datasets, in equatorial (top) and the Sgr stream (bottom) coordinate systems. The darker regions correspond to enhanced stellar density. The red boxes enclose the area used to study the line of sight sub-structure on the Southern extension of the Sgr stream, for the bright (at $\mathaccentV {tilde}07E{\rm  B}_{\odot } < 0^{\circ }$) and faint ($\mathaccentV {tilde}07E{\rm  B}_{\odot } > 0^{\circ }$) branches.}}{2}{figure.1}}
\newlabel{fig:stitch}{{1}{2}{Density map of MSTO stars from the SDSS DR9 and VST ATLAS datasets, in equatorial (top) and the Sgr stream (bottom) coordinate systems. The darker regions correspond to enhanced stellar density. The red boxes enclose the area used to study the line of sight sub-structure on the Southern extension of the Sgr stream, for the bright (at $\tilde {\rm B}_{\odot } < 0^{\circ }$) and faint ($\tilde {\rm B}_{\odot } > 0^{\circ }$) branches}{figure.1}{}}
\@writefile{lof}{\contentsline {figure}{\numberline {2}{\ignorespaces {\it  Left:} Hess diagram for the on-stream field defined by --50$^{\circ }$ < $\mathaccentV {tilde}07E{\Lambda }_{\odot }$ < --32$^{\circ }$ and --7$^{\circ } < \mathaccentV {tilde}07E{\rm  B}_{\odot } < 0^{\circ }$. The MS and the MSTO of the Sgr population are both clearly visible at $i \sim $ 20 mag and fainter. {\it  Middle:} Hess diagram for the off-stream field, from SDSS data. {\it  Right:} Background-subtracted Hess diagram of the Sgr stream. The MS, subgiant and red giant branches are all clearly recovered. The bin size in the Hess diagrams are 0.15 mag in $i$ magnitude and 0.05 in $(g-i)$ color. The color bar scale corresponds to the number of stars per bin per square degree in each panel.}}{3}{figure.2}}
\newlabel{fig:hess}{{2}{3}{{\it Left:} Hess diagram for the on-stream field defined by --50$^{\circ }$ < $\tilde {\Lambda }_{\odot }$ < --32$^{\circ }$ and --7$^{\circ } < \tilde {\rm B}_{\odot } < 0^{\circ }$. The MS and the MSTO of the Sgr population are both clearly visible at $i \sim $ 20 mag and fainter. {\it Middle:} Hess diagram for the off-stream field, from SDSS data. {\it Right:} Background-subtracted Hess diagram of the Sgr stream. The MS, subgiant and red giant branches are all clearly recovered. The bin size in the Hess diagrams are 0.15 mag in $i$ magnitude and 0.05 in $(g-i)$ color. The color bar scale corresponds to the number of stars per bin per square degree in each panel}{figure.2}{}}
\@writefile{lof}{\contentsline {figure}{\numberline {3}{\ignorespaces Same as Figure\nobreakspace  {}\ref  {fig:hess}, but for the region enclosed by --50$^{\circ }$ < $\mathaccentV {tilde}07E{\Lambda }_{\odot }$ < --34$^{\circ }$ and 1$^{\circ } < \mathaccentV {tilde}07E{\rm  B}_{\odot } < 9^{\circ }$, i.e. corresponding to the location of the faint branch of the Sgr trailing arm. The Hess difference hints at the existence of two SGBs, as in the bright branch, but with much less signal (compare with the right panel of Figure\nobreakspace  {}\ref  {fig:hess}). }}{3}{figure.3}}
\newlabel{fig:hess_faint}{{3}{3}{Same as Figure~\ref {fig:hess}, but for the region enclosed by --50$^{\circ }$ < $\tilde {\Lambda }_{\odot }$ < --34$^{\circ }$ and 1$^{\circ } < \tilde {\rm B}_{\odot } < 9^{\circ }$, i.e. corresponding to the location of the faint branch of the Sgr trailing arm. The Hess difference hints at the existence of two SGBs, as in the bright branch, but with much less signal (compare with the right panel of Figure~\ref {fig:hess})}{figure.3}{}}
\@writefile{toc}{\contentsline {section}{\numberline {2}The Sgr stream in the ATLAS survey}{3}{section.2}}
\newlabel{sec:vst_sgr}{{2}{3}{The Sgr stream in the ATLAS survey}{section.2}{}}
\citation{A12}
\citation{B14}
\citation{K12}
\citation{S13}
\citation{S13}
\citation{B06}
\citation{B06}
\@writefile{lof}{\contentsline {figure}{\numberline {4}{\ignorespaces Luminosity functions of SGB stars selected to lie in a narrow color range in the bright branch (dashed lines in Figures\nobreakspace  {}\ref  {fig:hess} and \ref  {fig:hess_faint}). {\it  Left}: Luminosity functions for the SGB stars for the on-stream field (solid line) and the off-stream field (dotted line), scaled by the ratio of their areas for the bright Sgr arm, at $-55^{\circ } < \mathaccentV {tilde}07E{\Lambda }_{\odot } < -30^{\circ }$ and $-7^{\circ } < \mathaccentV {tilde}07E{\rm  B}_{\odot } < 0^{\circ }$. {\it  Left middle:} Difference of the luminosity functions for the on- and the off-stream fields shown in the left panel. Note the two peaks visible at $i \sim $ 19.6 and 20.0 mag. {\it  Right middle:} The same as leftmost panel, but for the area enclosing the Sgr faint branch: $-53^{\circ } < \mathaccentV {tilde}07E{\Lambda }_{\odot } < -48^{\circ }$ and $1^{\circ } < \mathaccentV {tilde}07E{\rm  B}_{\odot } < 9^{\circ }$. The distributions corresponds to the on-stream (solid line) and off-stream (dotted line) fields. {\it  Right:} Difference of the luminosity functions for the on-stream region of the Sgr faint branch. Here three peaks are noticeable, at $i \sim 19.3$, $19.9$ and $20.3$ mag. Representative error bars are shown at the bottom right in each panel.}}{4}{figure.4}}
\newlabel{fig:lf}{{4}{4}{Luminosity functions of SGB stars selected to lie in a narrow color range in the bright branch (dashed lines in Figures~\ref {fig:hess} and \ref {fig:hess_faint}). {\it Left}: Luminosity functions for the SGB stars for the on-stream field (solid line) and the off-stream field (dotted line), scaled by the ratio of their areas for the bright Sgr arm, at $-55^{\circ } < \tilde {\Lambda }_{\odot } < -30^{\circ }$ and $-7^{\circ } < \tilde {\rm B}_{\odot } < 0^{\circ }$. {\it Left middle:} Difference of the luminosity functions for the on- and the off-stream fields shown in the left panel. Note the two peaks visible at $i \sim $ 19.6 and 20.0 mag. {\it Right middle:} The same as leftmost panel, but for the area enclosing the Sgr faint branch: $-53^{\circ } < \tilde {\Lambda }_{\odot } < -48^{\circ }$ and $1^{\circ } < \tilde {\rm B}_{\odot } < 9^{\circ }$. The distributions corresponds to the on-stream (solid line) and off-stream (dotted line) fields. {\it Right:} Difference of the luminosity functions for the on-stream region of the Sgr faint branch. Here three peaks are noticeable, at $i \sim 19.3$, $19.9$ and $20.3$ mag. Representative error bars are shown at the bottom right in each panel}{figure.4}{}}
\@writefile{toc}{\contentsline {subsection}{\numberline {2.1}Color-magnitude diagrams}{4}{subsection.2.1}}
\newlabel{cmd}{{2.1}{4}{Color-magnitude diagrams}{subsection.2.1}{}}
\@writefile{lof}{\contentsline {figure}{\numberline {5}{\ignorespaces Density of the bright branch SGB stars as a function of the longitude along the stream, $\mathaccentV {tilde}07E{\Lambda }_{\odot }$, and the $i$-band magnitude. The on-stream field (left), the model (center) and the residuals (right) are shown. The 2D density was divided by the area covered by the field. The diagrams are 14 $\times $ 25 pixels, and the residuals are smoothed with a Gaussian kernel with a FWHM of 0.7 pixels. At each $\mathaccentV {tilde}07E{\Lambda }_{\odot }$ bin, the residuals are vertically normalized. The two peaks in the Sgr bright stream (the ``fork'') start at $\mathaccentV {tilde}07E{\Lambda }_{\odot } \sim $--30$^{\circ }$, separated by $\sim $0.6 mag, and tend to merge at $\mathaccentV {tilde}07E{\Lambda }_{\odot } \sim $--70$^{\circ }$. Afterwards, there are also two peaks, with the most prominent one located at i$\sim $20.2 mag, and another much less prominent at $\sim $19.4 mag.}}{5}{figure.5}}
\newlabel{trace_sgb}{{5}{5}{Density of the bright branch SGB stars as a function of the longitude along the stream, $\tilde {\Lambda }_{\odot }$, and the $i$-band magnitude. The on-stream field (left), the model (center) and the residuals (right) are shown. The 2D density was divided by the area covered by the field. The diagrams are 14 $\times $ 25 pixels, and the residuals are smoothed with a Gaussian kernel with a FWHM of 0.7 pixels. At each $\tilde {\Lambda }_{\odot }$ bin, the residuals are vertically normalized. The two peaks in the Sgr bright stream (the ``fork'') start at $\tilde {\Lambda }_{\odot } \sim $--30$^{\circ }$, separated by $\sim $0.6 mag, and tend to merge at $\tilde {\Lambda }_{\odot } \sim $--70$^{\circ }$. Afterwards, there are also two peaks, with the most prominent one located at i$\sim $20.2 mag, and another much less prominent at $\sim $19.4 mag}{figure.5}{}}
\@writefile{lof}{\contentsline {figure}{\numberline {6}{\ignorespaces Same as Figure\nobreakspace  {}\ref  {trace_sgb}, but now for the SGB stars in the region between $1^{\circ } < \mathaccentV {tilde}07E{\rm  B}_{\odot } < 9^{\circ }$, i.e. the so-called faint branch. At each $\mathaccentV {tilde}07E{\Lambda }_{\odot }$ bin, the residuals are vertically normalized. The diagrams are 9 $\times $ 17 pixels, and the residuals are smoothed with a Gaussian kernel with a FWHM of 0.7 pixels In this case, the signal of SGB stars is most prominent at $i \sim $ 20 mag, with a secondary peak at $i \sim $ 20.5 mag. In some $\mathaccentV {tilde}07E{\Lambda }_{\odot }$ bins, a small increase in the number of SGB stars is found at $i \sim $ 19 mag.}}{5}{figure.6}}
\newlabel{trace_faint}{{6}{5}{Same as Figure~\ref {trace_sgb}, but now for the SGB stars in the region between $1^{\circ } < \tilde {\rm B}_{\odot } < 9^{\circ }$, i.e. the so-called faint branch. At each $\tilde {\Lambda }_{\odot }$ bin, the residuals are vertically normalized. The diagrams are 9 $\times $ 17 pixels, and the residuals are smoothed with a Gaussian kernel with a FWHM of 0.7 pixels In this case, the signal of SGB stars is most prominent at $i \sim $ 20 mag, with a secondary peak at $i \sim $ 20.5 mag. In some $\tilde {\Lambda }_{\odot }$ bins, a small increase in the number of SGB stars is found at $i \sim $ 19 mag}{figure.6}{}}
\@writefile{lof}{\contentsline {figure}{\numberline {7}{\ignorespaces Same as Figure\nobreakspace  {}\ref  {trace_sgb}, but now for the SGB stars in the off-stream test field (covered by the SDSS DR9). The off-stream field (left), the model (center) and the residuals (right) are shown. At each $\mathaccentV {tilde}07E{\Lambda }_{\odot }$ bin, the residuals are vertically normalized and the residuals were smoothed using a Gaussian kernel with a FWHM of 0.7 pixels. No positive residuals can be traced in the magnitude range of interest, as expected for an area without any known halo sub-structure (with distances similar to those of the Sgr stream).}}{5}{figure.7}}
\newlabel{background}{{7}{5}{Same as Figure~\ref {trace_sgb}, but now for the SGB stars in the off-stream test field (covered by the SDSS DR9). The off-stream field (left), the model (center) and the residuals (right) are shown. At each $\tilde {\Lambda }_{\odot }$ bin, the residuals are vertically normalized and the residuals were smoothed using a Gaussian kernel with a FWHM of 0.7 pixels. No positive residuals can be traced in the magnitude range of interest, as expected for an area without any known halo sub-structure (with distances similar to those of the Sgr stream)}{figure.7}{}}
\citation{K12}
\citation{S13}
\citation{K12,S13}
\@writefile{toc}{\contentsline {section}{\numberline {3}Stream tomography}{6}{section.3}}
\newlabel{sec:tomography}{{3}{6}{Stream tomography}{section.3}{}}
\@writefile{toc}{\contentsline {subsection}{\numberline {3.1}Exposing the Sagittarius SGB}{6}{subsection.3.1}}
\@writefile{lof}{\contentsline {figure}{\numberline {8}{\ignorespaces Line-of-sight distribution of BHB candidate stars. {\it  Top:} Greyscale density of the BHB candidate stars in the plane of distance modulus vs. Sgr stream longitude $\mathaccentV {tilde}07E{\Lambda }_{\odot }$ for the bight (left) and the faint (right) trailing arm branches. The darker regions correspond to an enhanced stellar density. Note that a combination of BHB candidate stars from both SDSS and VST ATLAS datasets is shown here. The main structures, including the Sgr and the Cetus Polar Stream debris, are marked. {\bf  The two solid lines show the distance gradient of the Sgr and Cetus streams.} {\it  Bottom:} Slices through the 2D BHB density plots shown in the Top panel for a small range of $\mathaccentV {tilde}07E{\Lambda }_{\odot }$ (as indicated in the title of each panel). Peaks corresponding to different line-of-sight components of the trailing arm are clearly visible (see main text for a detailed discussion).}}{7}{figure.8}}
\newlabel{bhbs}{{8}{7}{Line-of-sight distribution of BHB candidate stars. {\it Top:} Greyscale density of the BHB candidate stars in the plane of distance modulus vs. Sgr stream longitude $\tilde {\Lambda }_{\odot }$ for the bight (left) and the faint (right) trailing arm branches. The darker regions correspond to an enhanced stellar density. Note that a combination of BHB candidate stars from both SDSS and VST ATLAS datasets is shown here. The main structures, including the Sgr and the Cetus Polar Stream debris, are marked. {\bf The two solid lines show the distance gradient of the Sgr and Cetus streams.} {\it Bottom:} Slices through the 2D BHB density plots shown in the Top panel for a small range of $\tilde {\Lambda }_{\odot }$ (as indicated in the title of each panel). Peaks corresponding to different line-of-sight components of the trailing arm are clearly visible (see main text for a detailed discussion)}{figure.8}{}}
\@writefile{lot}{\contentsline {table}{\numberline {1}{\ignorespaces Distance modulus to the trailing SGB 1 and 2 peaks along the bright branch of the Sgr stream.}}{7}{table.1}}
\newlabel{tab:table1}{{1}{7}{Distance modulus to the trailing SGB 1 and 2 peaks along the bright branch of the Sgr stream}{table.1}{}}
\@writefile{toc}{\contentsline {subsection}{\numberline {3.2}Distances to the Sgr trailing tail with SGB stars}{7}{subsection.3.2}}
\newlabel{sec:dist}{{3.2}{7}{Distances to the Sgr trailing tail with SGB stars}{subsection.3.2}{}}
\citation{K12}
\citation{Yanny2000,Clewley2002,Newberg2003,Sirko2004,Xue2008,Bell2010,Deason2011,Ruhland2011,Deason2012,Deason2014,B14,Be2016}
\citation{Be2016}
\citation{Deason2011}
\citation{K12}
\citation{Newberg2009}
\citation{K12}
\@writefile{lot}{\contentsline {table}{\numberline {2}{\ignorespaces Distance modulus to the trailing SGB 1 and SGB 2 peaks in the SGB luminosity function along the Sgr faint stream}}{8}{table.2}}
\newlabel{tab:faint_dist}{{2}{8}{Distance modulus to the trailing SGB 1 and SGB 2 peaks in the SGB luminosity function along the Sgr faint stream}{table.2}{}}
\@writefile{toc}{\contentsline {subsection}{\numberline {3.3}Sgr trailing debris with BHB stars}{8}{subsection.3.3}}
\newlabel{sec:bhbs}{{3.3}{8}{Sgr trailing debris with BHB stars}{subsection.3.3}{}}
\citation{C09,C15}
\citation{I00,W09}
\citation{V05}
\citation{P09}
\citation{K12}
\citation{S13}
\citation{T15}
\citation{S13}
\citation{K12}
\citation{S13}
\citation{T15}
\citation{S13}
\citation{L03,D09}
\citation{T15}
\citation{T15}
\@writefile{toc}{\contentsline {subsection}{\numberline {3.4}Sgr trailing tail with CRTS RR Lyrae}{9}{subsection.3.4}}
\newlabel{sec:rrl}{{3.4}{9}{Sgr trailing tail with CRTS RR Lyrae}{subsection.3.4}{}}
\@writefile{lot}{\contentsline {table}{\numberline {3}{\ignorespaces Distance modulus peaks of RRL stars along Sgr trailing tail}}{9}{table.3}}
\newlabel{tab:rrl_distance}{{3}{9}{Distance modulus peaks of RRL stars along Sgr trailing tail}{table.3}{}}
\@writefile{lof}{\contentsline {figure}{\numberline {9}{\ignorespaces Heliocentric distances for RRL stars in Sgr\tmspace  +\thinmuskip {.1667em}1, restricted to the Sgr bright arm region (i.e., $-7^{\circ } < \mathaccentV {tilde}07E{\rm  B}_{\odot } < 0^{\circ }$). The red histogram corresponds to RRL stars located at $-50^{\circ } < \mathaccentV {tilde}07E{\Lambda }_{\odot } < -27.5^{\circ }$ and the black histogram to those located at $-27.5^{\circ } < \mathaccentV {tilde}07E{\Lambda }_{\odot } < -6.0^{\circ }$. The distribution of RRL stars located near the edge of VST detections, further away from Sgr dwarf, is bimodal, with two peaks consistent with the detections of SGB and BHB stars from VST ATLAS survey. For the innermost region, where VST does not observe, the RRL stars have a distribution consistent with only one main peak, but wider than the previous detections.}}{9}{figure.9}}
\newlabel{fig:rrl_peaks}{{9}{9}{Heliocentric distances for RRL stars in Sgr\,1, restricted to the Sgr bright arm region (i.e., $-7^{\circ } < \tilde {\rm B}_{\odot } < 0^{\circ }$). The red histogram corresponds to RRL stars located at $-50^{\circ } < \tilde {\Lambda }_{\odot } < -27.5^{\circ }$ and the black histogram to those located at $-27.5^{\circ } < \tilde {\Lambda }_{\odot } < -6.0^{\circ }$. The distribution of RRL stars located near the edge of VST detections, further away from Sgr dwarf, is bimodal, with two peaks consistent with the detections of SGB and BHB stars from VST ATLAS survey. For the innermost region, where VST does not observe, the RRL stars have a distribution consistent with only one main peak, but wider than the previous detections}{figure.9}{}}
\citation{T15}
\citation{D13}
\citation{T15}
\citation{K12}
\citation{K12}
\citation{K12}
\citation{S13}
\citation{LM10}
\citation{LM10}
\citation{S13}
\@writefile{lof}{\contentsline {figure}{\numberline {10}{\ignorespaces {\it  Left:} Heliocentric distances as a function of the longitude along the stream. Yellow circles correspond to the RC measurements by \cite {K12}, while open pink rhombs are the RC detections of \cite {S13} using the Pan-STARRS data. The SGB data-points obtained in this work are marked with blue (trailing 1) and green (trailing 2) circles. Peaks in the RRL distribution \citep  [using the Sgr\nobreakspace  {}1 sample of][]{T15} are marked with purple circles, while the individual RRL stars from Sgr\nobreakspace  {}1 are marked with grey points. The position of the Sgr dwarf, at $\mathaccentV {tilde}07E{\Lambda }_{\odot }$ = 0$^{\circ }$, and heliocentric distance of 26.3 kpc, is marked with a filled red circle. {\it  Right:} Heliocentric distances as a function of $\mathaccentV {tilde}07E{\Lambda }_{\odot }$ for the faint branch of the trailing arm (located at $\mathaccentV {tilde}07E{\rm  B}_{\odot } > 0^{\circ }$). Open diamonds correspond to the RC detections from \cite {S13}. Measurements based on the SGB stars are marked with blue (trailing 1) and green (trailing 2) circles. The main stream, trailing 1, splits into two parallel sequences, separated by $\sim $5 kpc in heliocentric distance.}}{10}{figure.10}}
\newlabel{dist}{{10}{10}{{\it Left:} Heliocentric distances as a function of the longitude along the stream. Yellow circles correspond to the RC measurements by \protect \cite {K12}, while open pink rhombs are the RC detections of \protect \cite {S13} using the Pan-STARRS data. The SGB data-points obtained in this work are marked with blue (trailing 1) and green (trailing 2) circles. Peaks in the RRL distribution \citep [using the Sgr~1 sample of][]{T15} are marked with purple circles, while the individual RRL stars from Sgr~1 are marked with grey points. The position of the Sgr dwarf, at $\tilde {\Lambda }_{\odot }$ = 0$^{\circ }$, and heliocentric distance of 26.3 kpc, is marked with a filled red circle. {\it Right:} Heliocentric distances as a function of $\tilde {\Lambda }_{\odot }$ for the faint branch of the trailing arm (located at $\tilde {\rm B}_{\odot } > 0^{\circ }$). Open diamonds correspond to the RC detections from \protect \cite {S13}. Measurements based on the SGB stars are marked with blue (trailing 1) and green (trailing 2) circles. The main stream, trailing 1, splits into two parallel sequences, separated by $\sim $5 kpc in heliocentric distance}{figure.10}{}}
\@writefile{toc}{\contentsline {section}{\numberline {4}Discussion and Conclusions}{10}{section.4}}
\newlabel{sec:dandc}{{4}{10}{Discussion and Conclusions}{section.4}{}}
\@writefile{toc}{\contentsline {subsection}{\numberline {4.1}Distances along the Sgr stream}{10}{subsection.4.1}}
\citation{Newberg2009,Yam13}
\citation{S13}
\citation{B14}
\citation{LM10}
\citation{LM10}
\citation{S13}
\@writefile{lof}{\contentsline {figure}{\numberline {11}{\ignorespaces Centroids of the SGB detections, projected on the plane of the Sgr orbit, with the bright (faint) branch shown in the left (right) panel. The pole of the plane is at Galactocentric coordinates $l_{GC}$ = 275$^{\circ }$ and $b_{GC}$ = --14$^{\circ }$. The symbols are the same as in Figure\nobreakspace  {}\ref  {dist}, but the individual RRL stars from Sgr\nobreakspace  {}1 are not shown here. The particles from the Sgr disruption model by \cite {LM10} are shown as grey-scale density.}}{11}{figure.11}}
\newlabel{xy}{{11}{11}{Centroids of the SGB detections, projected on the plane of the Sgr orbit, with the bright (faint) branch shown in the left (right) panel. The pole of the plane is at Galactocentric coordinates $l_{GC}$ = 275$^{\circ }$ and $b_{GC}$ = --14$^{\circ }$. The symbols are the same as in Figure~\ref {dist}, but the individual RRL stars from Sgr~1 are not shown here. The particles from the Sgr disruption model by \protect \cite {LM10} are shown as grey-scale density}{figure.11}{}}
\@writefile{toc}{\contentsline {subsection}{\numberline {4.2}In the Sgr orbital plane}{11}{subsection.4.2}}
\citation{T15}
\citation{W09}
\citation{W09}
\citation{P09}
\citation{P09}
\citation{Gibbons2016}
\citation{B06}
\@writefile{toc}{\contentsline {subsection}{\numberline {4.3}Adding the third dimension}{12}{subsection.4.3}}
\newlabel{sec:3rd}{{4.3}{12}{Adding the third dimension}{subsection.4.3}{}}
\@writefile{toc}{\contentsline {subsection}{\numberline {4.4}Metallicity of the detected sub-structures}{12}{subsection.4.4}}
\@writefile{toc}{\contentsline {subsection}{\numberline {4.5}Conclusions}{12}{subsection.4.5}}
\citation{K12}
\citation{S13}
\citation{LM10}
\citation{Jorge2010}
\citation{Simon2016}
\@writefile{lof}{\contentsline {figure}{\numberline {12}{\ignorespaces {\it  Left and Middle}: Density distribution of the candidate SGB stars in the two line-of-sight components (SGB 1 and SGB 2) as a function of the stream latitude $\mathaccentV {tilde}07E{\rm  B}_{\odot }$. The red dotted (black solid) histograms represent the SGB 1 (SGB 2) component. The SGB stars are selected to have 0.52 $< (g-i) <$ 0.6. Additionally, a cut in the space of $i$ magnitude vs. $\mathaccentV {tilde}07E{\Lambda }_{\odot }$ is applied and the exact selection boxes are shown in the inset of the middle panel. Note the different locations of the peaks of the two distributions in the middle panel, i.e. the portion of the stream closest to the Sgr remnant. {Right:} Density distribution of the candidate BHB stars. The main (secondary) structure corresponding to the SGB 1 (SGB 2) component is shown with dotted red (solid black) line. Across the three panels, the solid black and the dotted red profiles show significant peaks around $\mathaccentV {tilde}07E{\rm  B}_{\odot }=0^{\circ }$, thus lending support to our hypothesis that the structures we see along the line of sight are confined to the Sgr orbital plane, and therefore are likely connected to the accretion of the Sgr dwarf. Moreover, in the second and third panels, the secondary streams traced by the SGB and the BHB stars (black line) are off-set by a similar amount from zero, i.e. $\sim -5^{\circ }$, thus providing further evidence that the two stellar tracers are picking up the same structure.}}{13}{figure.12}}
\newlabel{accross}{{12}{13}{{\it Left and Middle}: Density distribution of the candidate SGB stars in the two line-of-sight components (SGB 1 and SGB 2) as a function of the stream latitude $\tilde {\rm B}_{\odot }$. The red dotted (black solid) histograms represent the SGB 1 (SGB 2) component. The SGB stars are selected to have 0.52 $< (g-i) <$ 0.6. Additionally, a cut in the space of $i$ magnitude vs. $\tilde {\Lambda }_{\odot }$ is applied and the exact selection boxes are shown in the inset of the middle panel. Note the different locations of the peaks of the two distributions in the middle panel, i.e. the portion of the stream closest to the Sgr remnant. {Right:} Density distribution of the candidate BHB stars. The main (secondary) structure corresponding to the SGB 1 (SGB 2) component is shown with dotted red (solid black) line. Across the three panels, the solid black and the dotted red profiles show significant peaks around $\tilde {\rm B}_{\odot }=0^{\circ }$, thus lending support to our hypothesis that the structures we see along the line of sight are confined to the Sgr orbital plane, and therefore are likely connected to the accretion of the Sgr dwarf. Moreover, in the second and third panels, the secondary streams traced by the SGB and the BHB stars (black line) are off-set by a similar amount from zero, i.e. $\sim -5^{\circ }$, thus providing further evidence that the two stellar tracers are picking up the same structure}{figure.12}{}}
\bibstyle{mnras}
\bibdata{biblio}
\bibcite{A12}{{1}{2012}{{{Ahn} et~al.}}{{{Ahn} et~al.,}}}
\bibcite{Bell2010}{{2}{2010}{{{Bell} et~al.}}{{{Bell}, {Xue}, {Rix}, {Ruhland} \& {Hogg}}}}
\bibcite{Be2016}{{3}{2016}{{{Belokurov} \& {Koposov}}}{{{Belokurov} \& {Koposov}}}}
\bibcite{B06}{{4}{2006}{{{Belokurov} et~al.}}{{{Belokurov} et~al.,}}}
\bibcite{B14}{{5}{2014}{{{Belokurov} et~al.}}{{{Belokurov} et~al.,}}}
\bibcite{C09}{{6}{2009}{{{Catelan}}}{{{Catelan}}}}
\bibcite{C15}{{7}{2015}{{{Catelan} \& {Smith}}}{{{Catelan} \& {Smith}}}}
\bibcite{Clewley2002}{{8}{2002}{{{Clewley} et~al.}}{{{Clewley}, {Warren}, {Hewett}, {Norris}, {Peterson} \& {Evans}}}}
\bibcite{Correnti2010}{{9}{2010}{{{Correnti} et~al.}}{{{Correnti}, {Bellazzini}, {Ibata}, {Ferraro} \& {Varghese}}}}
\bibcite{Deason2011}{{10}{2011}{{{Deason} et~al.}}{{{Deason}, {Belokurov} \& {Evans}}}}
\bibcite{Deason2012}{{11}{2012}{{{Deason} et~al.}}{{{Deason} et~al.,}}}
\bibcite{Deason2014}{{12}{2014}{{{Deason} et~al.}}{{{Deason}, {Belokurov}, {Koposov} \& {Rockosi}}}}
\bibcite{D09}{{13}{2009}{{{Drake} et~al.}}{{{Drake} et~al.,}}}
\bibcite{D13}{{14}{2013a}{{{Drake} et~al.}}{{{Drake} et~al.,}}}
\bibcite{DrakeStream}{{15}{2013b}{{{Drake} et~al.}}{{{Drake} et~al.,}}}
\bibcite{Erkal16a}{{16}{2016a}{{{Erkal} et~al.}}{{{Erkal}, {Sanders} \& {Belokurov}}}}
\bibcite{Erkal16b}{{17}{2016b}{{{Erkal} et~al.}}{{{Erkal}, {Belokurov}, {Bovy} \& {Sanders}}}}
\bibcite{Gibbons14}{{18}{2014}{{{Gibbons} et~al.}}{{{Gibbons}, {Belokurov} \& {Evans}}}}
\bibcite{Gibbons2016}{{19}{2016a}{{{Gibbons} et~al.}}{{{Gibbons}, {Belokurov} \& {Evans}}}}
\bibcite{Simon2016}{{20}{2016b}{{{Gibbons} et~al.}}{{{Gibbons}, {Belokurov}, {Erkal} \& {Evans}}}}
\bibcite{Henden2016}{{21}{2016}{{{Henden} et~al.}}{{{Henden}, {Templeton}, {Terrell}, {Smith}, {Levine} \& {Welch}}}}
\bibcite{I00}{{22}{2000}{{{Ivezi{\'c}} et~al.}}{{{Ivezi{\'c}} et~al.,}}}
\bibcite{K12}{{23}{2012}{{{Koposov} et~al.}}{{{Koposov} et~al.,}}}
\bibcite{K14}{{24}{2014}{{{Koposov} et~al.}}{{{Koposov}, {Irwin}, {Belokurov}, {Gonzalez-Solares}, {Yoldas}, {Lewis}, {Metcalfe} \& {Shanks}}}}
\bibcite{L03}{{25}{2003}{{{Larson} et~al.}}{{{Larson}, {Beshore}, {Hill}, {Christensen}, {McLean}, {Kolar}, {McNaught} \& {Garradd}}}}
\bibcite{LM10}{{26}{2010}{{{Law} \& {Majewski}}}{{{Law} \& {Majewski}}}}
\bibcite{M03}{{27}{2003}{{{Majewski} et~al.}}{{{Majewski}, {Skrutskie}, {Weinberg} \& {Ostheimer}}}}
\bibcite{Newberg2003}{{28}{2003}{{{Newberg} et~al.}}{{{Newberg} et~al.,}}}
\bibcite{Newberg2009}{{29}{2009}{{{Newberg} et~al.}}{{{Newberg}, {Yanny} \& {Willett}}}}
\bibcite{MNO2010}{{30}{2010}{{{Niederste-Ostholt} et~al.}}{{{Niederste-Ostholt}, {Belokurov}, {Evans} \& {Pe{\~n}arrubia}}}}
\bibcite{Jorge2010}{{31}{2010}{{{Pe{\~n}arrubia} et~al.}}{{{Pe{\~n}arrubia}, {Belokurov}, {Evans}, {Mart{\'{\i }}nez-Delgado}, {Gilmore}, {Irwin}, {Niederste-Ostholt} \& {Zucker}}}}
\bibcite{P09}{{32}{2009}{{{Prior} et~al.}}{{{Prior}, {Da Costa} \& {Keller}}}}
\bibcite{Ruhland2011}{{33}{2011}{{{Ruhland} et~al.}}{{{Ruhland}, {Bell}, {Rix} \& {Xue}}}}
\bibcite{SF11}{{34}{2011}{{{Schlafly} \& {Finkbeiner}}}{{{Schlafly} \& {Finkbeiner}}}}
\bibcite{SFD98}{{35}{1998}{{{Schlegel} et~al.}}{{{Schlegel}, {Finkbeiner} \& {Davis}}}}
\bibcite{S15}{{36}{2015}{{{Shanks} et~al.}}{{{Shanks} et~al.,}}}
\bibcite{Sirko2004}{{37}{2004}{{{Sirko} et~al.}}{{{Sirko} et~al.,}}}
\bibcite{S13}{{38}{2013}{{{Slater} et~al.}}{{{Slater} et~al.,}}}
\bibcite{T15}{{39}{2015}{{{Torrealba} et~al.}}{{{Torrealba} et~al.,}}}
\bibcite{V05}{{40}{2005}{{{Vivas} et~al.}}{{{Vivas}, {Zinn} \& {Gallart}}}}
\bibcite{W09}{{41}{2009}{{{Watkins} et~al.}}{{{Watkins} et~al.,}}}
\bibcite{Xue2008}{{42}{2008}{{{Xue} et~al.}}{{{Xue} et~al.,}}}
\bibcite{Yam13}{{43}{2013}{{{Yam} et~al.}}{{{Yam}, {Carlin}, {Newberg}, {Dumas}, {O'Malley}, {Newby} \& {Martin}}}}
\bibcite{Yanny2000}{{44}{2000}{{{Yanny} et~al.}}{{{Yanny} et~al.,}}}
\bibcite{Yanny2009}{{45}{2009}{{{Yanny} et~al.}}{{{Yanny} et~al.,}}}
\bibcite{deBoer2015}{{46}{2015}{{{de Boer} et~al.}}{{{de Boer}, {Belokurov} \& {Koposov}}}}
\newlabel{lastpage}{{4.5}{14}{Acknowledgements}{figure.12}{}}
