%!PS-Adobe-3.0 EPSF-3.0
%%BoundingBox: 0 0 360 432
%%Title: Graphics produced by IDL
%%For: vasily@camd38.ast.cam.ac.uk, 
%%      /Users/vasily/Dropbox (Personal)/idl/work/misc
%%Creator: IDL Version 8.4.1, Mac OS X (darwin x86_64 m64)
%%CreationDate: Tue Nov 15 12:22:32 2016
%%DocumentData: Clean7bit
%%Requirements: color
%%LanguageLevel: 1
%%PageOrder: Ascend
%%Pages: (atend)
%%DocumentNeededResources: (atend)
%%EndComments
%%BeginProlog
%+ prolog.ps -- Prolog for IDL generated PostScript files
%+ Copyright (c) 1988-2015 Exelis Visual Information Solutions, Inc. All Rights Reserved.
%v 5
/$IDL_DICT 40 dict def $IDL_DICT begin /bdef { bind def } bind def /C
{currentpoint newpath moveto} bdef /CP {currentpoint} bdef /D {currentpoint
stroke moveto} bdef /F {closepath fill} bdef /K { setgray } bdef /M {moveto}
bdef /N {rmoveto} bdef /P {lineto} bdef /R {rlineto} bdef /S {gsave show
grestore} bdef /X {currentpoint pop} bdef /Z {gsave currentpoint lineto 20
setlinewidth 1 setlinecap stroke grestore} bdef /L0 {[] 0 setdash} bdef /L1
{[40 100] 0 setdash} bdef /L2 {[200 200] 0 setdash} bdef /L3 {[200 100 50
100] 0 setdash} bdef /L4 {[300 100 50 100 50 100 50 100] 0 setdash} bdef /L5
{[400 200] 0 setdash} bdef /STDFONT { findfont exch scalefont setfont } bdef
/ISOFONT { findfont dup length dict begin { 1 index /FID ne {def} {pop pop}
ifelse } forall /Encoding ISOLatin1Encoding def currentdict end /idltmpfont
exch definefont exch scalefont setfont } bdef /ISOBULLET { gsave /Helvetica
findfont exch scalefont setfont (\267) show currentpoint grestore moveto}
bdef /MITERLIMIT { 2.5 setmiterlimit } bdef end
%%EndProlog
%%Page: 0 1
%%PageRequirements: color
%%PageResources: (atend)
%%PageOrientation: Portrait
%%PageBoundingBox: 0 0 360 432
%%BeginPageSetup
$IDL_DICT begin 0.0283465 dup scale MITERLIMIT
%%IncludeResource: font Helvetica
423.333 /Helvetica STDFONT
%%EndPageSetup
0.000 0.000 0.000 setrgbcolor gsave 6894 14571 translate 0 0 M
1.25 dup scale -1948.71 0 N
(BHB stars, -8) show X 192.937 M
%%IncludeResource: font Symbol
262.467 /Symbol STDFONT
(\260) show X 0 M
%%IncludeResource: font Helvetica
423.333 /Helvetica STDFONT
(<) show CP X 204.996 M
(~) show M X 0 M
(B) show CP X -101.051 M
%%IncludeResource: font AvantGarde-Book
262.467 /AvantGarde-Book STDFONT
(O) show M X -58.3193 M
%%IncludeResource: font AvantGarde-Book
186.267 /AvantGarde-Book STDFONT
( \267) show X 0 M
%%IncludeResource: font Helvetica
423.333 /Helvetica STDFONT
(<0) show X 192.937 M
%%IncludeResource: font Symbol
262.467 /Symbol STDFONT
(\260) show
%%IncludeResource: font Helvetica
262.467 /Helvetica STDFONT grestore
%%IncludeResource: font Helvetica
423.333 /Helvetica STDFONT 10 setlinewidth L0 1643 8676 M 10502 0 R D
1643 8676 M 0 114 R D 3552 8676 M 0 114 R D 5462 8676 M 0 114 R D
7371 8676 M 0 114 R D 9281 8676 M 0 114 R D 11190 8676 M 0 114 R D
2120 8676 M 0 57 R D 2598 8676 M 0 57 R D 3075 8676 M 0 57 R D 4030 8676 M
0 57 R D 4507 8676 M 0 57 R D 4984 8676 M 0 57 R D 5939 8676 M 0 57 R D
6417 8676 M 0 57 R D 6894 8676 M 0 57 R D 7849 8676 M 0 57 R D 8326 8676 M
0 57 R D 8803 8676 M 0 57 R D 9758 8676 M 0 57 R D 10236 8676 M 0 57 R D
10713 8676 M 0 57 R D 11668 8676 M 0 57 R D 12145 8676 M 0 57 R D
1643 14360 M 10502 0 R D 1643 14360 M 0 -114 R D 3552 14360 M 0 -114 R D
5462 14360 M 0 -114 R D 7371 14360 M 0 -114 R D 9281 14360 M 0 -114 R D
11190 14360 M 0 -114 R D 2120 14360 M 0 -57 R D 2598 14360 M 0 -57 R D
3075 14360 M 0 -57 R D 4030 14360 M 0 -57 R D 4507 14360 M 0 -57 R D
4984 14360 M 0 -57 R D 5939 14360 M 0 -57 R D 6417 14360 M 0 -57 R D
6894 14360 M 0 -57 R D 7849 14360 M 0 -57 R D 8326 14360 M 0 -57 R D
8803 14360 M 0 -57 R D 9758 14360 M 0 -57 R D 10236 14360 M 0 -57 R D
10713 14360 M 0 -57 R D 11668 14360 M 0 -57 R D 12145 14360 M 0 -57 R D
1643 8676 M 0 5684 R D 1643 8676 M 210 0 R D 1643 9939 M 210 0 R D
1643 11202 M 210 0 R D 1643 12465 M 210 0 R D 1643 13729 M 210 0 R D
1643 8802 M 105 0 R D 1643 8929 M 105 0 R D 1643 9055 M 105 0 R D
1643 9181 M 105 0 R D 1643 9308 M 105 0 R D 1643 9434 M 105 0 R D
1643 9560 M 105 0 R D 1643 9687 M 105 0 R D 1643 9813 M 105 0 R D
1643 10065 M 105 0 R D 1643 10192 M 105 0 R D 1643 10318 M 105 0 R D
1643 10444 M 105 0 R D 1643 10571 M 105 0 R D 1643 10697 M 105 0 R D
1643 10823 M 105 0 R D 1643 10950 M 105 0 R D 1643 11076 M 105 0 R D
1643 11329 M 105 0 R D 1643 11455 M 105 0 R D 1643 11581 M 105 0 R D
1643 11708 M 105 0 R D 1643 11834 M 105 0 R D 1643 11960 M 105 0 R D
1643 12086 M 105 0 R D 1643 12213 M 105 0 R D 1643 12339 M 105 0 R D
1643 12592 M 105 0 R D 1643 12718 M 105 0 R D 1643 12844 M 105 0 R D
1643 12971 M 105 0 R D 1643 13097 M 105 0 R D 1643 13223 M 105 0 R D
1643 13350 M 105 0 R D 1643 13476 M 105 0 R D 1643 13602 M 105 0 R D
1643 13855 M 105 0 R D 1643 13981 M 105 0 R D 1643 14107 M 105 0 R D
1643 14234 M 105 0 R D 1643 14360 M 105 0 R D 12145 8676 M 0 5684 R D
12145 8676 M -210 0 R D 12145 9939 M -210 0 R D 12145 11202 M -210 0 R D
12145 12465 M -210 0 R D 12145 13729 M -210 0 R D 12145 8802 M -105 0 R D
12145 8929 M -105 0 R D 12145 9055 M -105 0 R D 12145 9181 M -105 0 R D
12145 9308 M -105 0 R D 12145 9434 M -105 0 R D 12145 9560 M -105 0 R D
12145 9687 M -105 0 R D 12145 9813 M -105 0 R D 12145 10065 M -105 0 R D
12145 10192 M -105 0 R D 12145 10318 M -105 0 R D 12145 10444 M -105 0 R D
12145 10571 M -105 0 R D 12145 10697 M -105 0 R D 12145 10823 M -105 0 R D
12145 10950 M -105 0 R D 12145 11076 M -105 0 R D 12145 11329 M -105 0 R D
12145 11455 M -105 0 R D 12145 11581 M -105 0 R D 12145 11708 M -105 0 R D
12145 11834 M -105 0 R D 12145 11960 M -105 0 R D 12145 12086 M -105 0 R D
12145 12213 M -105 0 R D 12145 12339 M -105 0 R D 12145 12592 M -105 0 R D
12145 12718 M -105 0 R D 12145 12844 M -105 0 R D 12145 12971 M -105 0 R D
12145 13097 M -105 0 R D 12145 13223 M -105 0 R D 12145 13350 M -105 0 R D
12145 13476 M -105 0 R D 12145 13602 M -105 0 R D 12145 13855 M -105 0 R D
12145 13981 M -105 0 R D 12145 14107 M -105 0 R D 12145 14234 M -105 0 R D
12145 14360 M -105 0 R D gsave 1643 8676 translate 10503 5684 scale
12 38 8 [12 0 0 38 0 0]
/COLORTAB < 000000 010101 020202 030303 040404 050505 060606 070707 080808
090909 0a0a0a 0b0b0b 0c0c0c 0d0d0d 0e0e0e 0f0f0f 101010 111111 121212 131313
141414 151515 161616 171717 181818 191919 1a1a1a 1b1b1b 1c1c1c 1d1d1d 1e1e1e
1f1f1f 202020 212121 222222 232323 242424 252525 262626 272727 282828 292929
2a2a2a 2b2b2b 2c2c2c 2d2d2d 2e2e2e 2f2f2f 303030 313131 323232 333333 343434
353535 363636 373737 383838 393939 3a3a3a 3b3b3b 3c3c3c 3d3d3d 3e3e3e 3f3f3f
404040 414141 424242 434343 444444 454545 464646 474747 484848 494949 4a4a4a
4b4b4b 4c4c4c 4d4d4d 4e4e4e 4f4f4f 505050 515151 525252 535353 545454 555555
565656 575757 585858 595959 5a5a5a 5b5b5b 5c5c5c 5d5d5d 5e5e5e 5f5f5f 606060
616161 626262 636363 646464 656565 666666 676767 686868 696969 6a6a6a 6b6b6b
6c6c6c 6d6d6d 6e6e6e 6f6f6f 707070 717171 727272 737373 747474 757575 767676
777777 787878 797979 7a7a7a 7b7b7b 7c7c7c 7d7d7d 7e7e7e 7f7f7f 808080 818181
828282 838383 848484 858585 868686 878787 888888 898989 8a8a8a 8b8b8b 8c8c8c
8d8d8d 8e8e8e 8f8f8f 909090 919191 929292 939393 949494 959595 969696 979797
989898 999999 9a9a9a 9b9b9b 9c9c9c 9d9d9d 9e9e9e 9f9f9f a0a0a0 a1a1a1 a2a2a2
a3a3a3 a4a4a4 a5a5a5 a6a6a6 a7a7a7 a8a8a8 a9a9a9 aaaaaa ababab acacac adadad
aeaeae afafaf b0b0b0 b1b1b1 b2b2b2 b3b3b3 b4b4b4 b5b5b5 b6b6b6 b7b7b7 b8b8b8
b9b9b9 bababa bbbbbb bcbcbc bdbdbd bebebe bfbfbf c0c0c0 c1c1c1 c2c2c2 c3c3c3
c4c4c4 c5c5c5 c6c6c6 c7c7c7 c8c8c8 c9c9c9 cacaca cbcbcb cccccc cdcdcd cecece
cfcfcf d0d0d0 d1d1d1 d2d2d2 d3d3d3 d4d4d4 d5d5d5 d6d6d6 d7d7d7 d8d8d8 d9d9d9
dadada dbdbdb dcdcdc dddddd dedede dfdfdf e0e0e0 e1e1e1 e2e2e2 e3e3e3 e4e4e4
e5e5e5 e6e6e6 e7e7e7 e8e8e8 e9e9e9 eaeaea ebebeb ececec ededed eeeeee efefef
f0f0f0 f1f1f1 f2f2f2 f3f3f3 f4f4f4 f5f5f5 f6f6f6 f7f7f7 f8f8f8 f9f9f9 fafafa
fbfbfb fcfcfc fdfdfd fefefe ffffff > def
/imgdata currentfile /ASCII85Decode filter def
{COLORTAB imgdata read pop  3 mul 3 getinterval } false 3 colorimage
s8W,Fs8W-!s8W-!\c;^0s8U=Cs8W-!s8Vurs8W-!s8W-!s8W,Gs8W-!s8W-!s8VWhs8W-!s8W-!s8W-!s8W,js8W-!s8W-!s8UsUs8W-!s8W-!s8W-!s8W-!
s8VZfs8W-!_7B<Vs8W-!s8W-!V8WDbs/Z2"s8W#s[m)E-s8W-!_pJ?S)eqJoL]@DSs8LrmXNc]Ks8W-!s8VE7ER]#Ws8W,si;_oSLQ?*K408>ZcsLOsqe@#e
s6nFj\DXs\TaCc"s8UQCK=1U#=XI95bbeB[5,eL7!!"<H5=T-&-DRhE93NG<Z]6=3!*,.>@D]h.!<<*B!!(('Gd7;K!!!"5!!*'!fqu4+!"E,Q49.G>Wp&^G
:k=(hlTunep=-1Z$iiN%aYG3<m.9Z8H_e75s+2.0S[-;Fs8UlThW]Rk18hJ2*+tF/7sm[)>TR3Zn"Yhb.0'>J(D9/GIU)pR+TMKf\6U[DVK=mZN*lVc!,$^?
LdV4C!&X`V!!!!7?N:'+!!=Qk@/p9-.f]PLz!#HOrzz,C"m9z;Q!ZRR>H`f!!!!^@PsV,K!:`3~>
grestore 1.000 1.000 1.000 setrgbcolor 1882 8739 M 3341 0 R 0 1642 R
-3341 0 R F
0.000 0.000 0.000 setrgbcolor gsave 1929 10065 translate 0 0 M
0.75 dup scale
(Trailing tail in SDSS) show grestore L1 1.000 0.000 0.000 setrgbcolor
4603 10192 M 65 42 R 54 47 R 44 53 R 33 57 R 23 61 R 12 67 R 2 72 R -9 77 R
-20 81 R -30 87 R -41 91 R -51 96 R -62 101 R -72 106 R -83 111 R -94 116 R
-104 121 R -115 125 R -125 131 R D 0.000 0.000 0.000 setrgbcolor
gsave 1929 9687 translate 0 0 M 0.75 dup scale
(Cetus stream) show grestore 1.000 0.000 0.000 setrgbcolor 3743 9813 M
167 -12 R 168 6 R 169 22 R 170 38 R 170 56 R 171 73 R 171 89 R 170 106 R
171 123 R 169 139 R 169 157 R 167 173 R 166 190 R 165 207 R 162 223 R
161 241 R 157 257 R 156 274 R 152 290 R D 0.000 0.000 0.000 setrgbcolor
gsave 1929 9308 translate 0 0 M 0.75 dup scale
(Stream 1 in VST ATLAS) show grestore 1.000 0.000 0.000 setrgbcolor
5271 9434 M 138 12 R 132 36 R 127 57 R 124 76 R 123 93 R 122 108 R 124 120 R
128 129 R 135 136 R 143 140 R 155 140 R 170 137 R 188 131 R 210 122 R
235 108 R 265 92 R 298 70 R 336 45 R 379 16 R D
0.000 0.000 0.000 setrgbcolor gsave 1929 8929 translate 0 0 M 0.75 dup scale
(Stream 2 in VST ATLAS) show grestore 1.000 0.000 0.000 setrgbcolor
5271 9055 M 103 -27 R 98 -2 R 97 20 R 98 38 R 101 55 R 106 68 R 114 80 R
124 87 R 136 92 R 151 94 R 167 95 R 188 91 R 209 85 R 233 77 R 259 65 R
288 51 R 319 35 R 353 14 R 388 -8 R D L0 4984 12213 M 6206 1516 R D
1643 12592 M 10502 -1137 R D 0.000 0.000 0.000 setrgbcolor 1643 8676 M
10502 0 R D 1643 8676 M 0 114 R D gsave 1643 8148 translate 0 0 M
-423.545 0 N
(-140) show grestore 3552 8676 M 0 114 R D gsave 3552 8148 translate 0 0 M
-423.545 0 N
(-120) show grestore 5462 8676 M 0 114 R D gsave 5462 8148 translate 0 0 M
-423.545 0 N
(-100) show grestore 7371 8676 M 0 114 R D gsave 7371 8148 translate 0 0 M
-305.858 0 N
(-80) show grestore 9281 8676 M 0 114 R D gsave 9281 8148 translate 0 0 M
-305.858 0 N
(-60) show grestore 11190 8676 M 0 114 R D gsave 11190 8148 translate 0 0 M
-305.858 0 N
(-40) show grestore 2120 8676 M 0 57 R D 2598 8676 M 0 57 R D 3075 8676 M
0 57 R D 4030 8676 M 0 57 R D 4507 8676 M 0 57 R D 4984 8676 M 0 57 R D
5939 8676 M 0 57 R D 6417 8676 M 0 57 R D 6894 8676 M 0 57 R D 7849 8676 M
0 57 R D 8326 8676 M 0 57 R D 8803 8676 M 0 57 R D 9758 8676 M 0 57 R D
10236 8676 M 0 57 R D 10713 8676 M 0 57 R D 11668 8676 M 0 57 R D
12145 8676 M 0 57 R D gsave 6894 7690 translate 0 0 M -259.245 0 N CP
X 204.996 M
(~) show M X 0 M
%%IncludeResource: font Symbol
423.333 /Symbol STDFONT
(L) show CP X -95.92 M
%%IncludeResource: font Helvetica
262.467 /Helvetica STDFONT
(O) show M X -55.9518 M
%%IncludeResource: font Helvetica
186.267 /Helvetica STDFONT
( \267) show grestore
%%IncludeResource: font Helvetica
423.333 /Helvetica STDFONT 1643 14360 M 10502 0 R D 1643 14360 M 0 -114 R D
3552 14360 M 0 -114 R D 5462 14360 M 0 -114 R D 7371 14360 M 0 -114 R D
9281 14360 M 0 -114 R D 11190 14360 M 0 -114 R D 2120 14360 M 0 -57 R D
2598 14360 M 0 -57 R D 3075 14360 M 0 -57 R D 4030 14360 M 0 -57 R D
4507 14360 M 0 -57 R D 4984 14360 M 0 -57 R D 5939 14360 M 0 -57 R D
6417 14360 M 0 -57 R D 6894 14360 M 0 -57 R D 7849 14360 M 0 -57 R D
8326 14360 M 0 -57 R D 8803 14360 M 0 -57 R D 9758 14360 M 0 -57 R D
10236 14360 M 0 -57 R D 10713 14360 M 0 -57 R D 11668 14360 M 0 -57 R D
12145 14360 M 0 -57 R D 1643 8676 M 0 5684 R D 1643 8676 M 210 0 R D
gsave 1532 8676 translate 0 0 M -470.747 0 N
(15) show grestore 1643 9939 M 210 0 R D gsave 1532 9798 translate 0 0 M
-470.747 0 N
(16) show grestore 1643 11202 M 210 0 R D gsave 1532 11061 translate 0 0 M
-470.747 0 N
(17) show grestore 1643 12465 M 210 0 R D gsave 1532 12325 translate 0 0 M
-470.747 0 N
(18) show grestore 1643 13729 M 210 0 R D gsave 1532 13588 translate 0 0 M
-470.747 0 N
(19) show grestore 1643 8802 M 105 0 R D 1643 8929 M 105 0 R D 1643 9055 M
105 0 R D 1643 9181 M 105 0 R D 1643 9308 M 105 0 R D 1643 9434 M 105 0 R D
1643 9560 M 105 0 R D 1643 9687 M 105 0 R D 1643 9813 M 105 0 R D
1643 10065 M 105 0 R D 1643 10192 M 105 0 R D 1643 10318 M 105 0 R D
1643 10444 M 105 0 R D 1643 10571 M 105 0 R D 1643 10697 M 105 0 R D
1643 10823 M 105 0 R D 1643 10950 M 105 0 R D 1643 11076 M 105 0 R D
1643 11329 M 105 0 R D 1643 11455 M 105 0 R D 1643 11581 M 105 0 R D
1643 11708 M 105 0 R D 1643 11834 M 105 0 R D 1643 11960 M 105 0 R D
1643 12086 M 105 0 R D 1643 12213 M 105 0 R D 1643 12339 M 105 0 R D
1643 12592 M 105 0 R D 1643 12718 M 105 0 R D 1643 12844 M 105 0 R D
1643 12971 M 105 0 R D 1643 13097 M 105 0 R D 1643 13223 M 105 0 R D
1643 13350 M 105 0 R D 1643 13476 M 105 0 R D 1643 13602 M 105 0 R D
1643 13855 M 105 0 R D 1643 13981 M 105 0 R D 1643 14107 M 105 0 R D
1643 14234 M 105 0 R D 1643 14360 M 105 0 R D
gsave 729 11518 translate 0 0 M 90 rotate -423.122 0 N
(m-M) show grestore 12145 8676 M 0 5684 R D 12145 8676 M -210 0 R D
12145 9939 M -210 0 R D 12145 11202 M -210 0 R D 12145 12465 M -210 0 R D
12145 13729 M -210 0 R D 12145 8802 M -105 0 R D 12145 8929 M -105 0 R D
12145 9055 M -105 0 R D 12145 9181 M -105 0 R D 12145 9308 M -105 0 R D
12145 9434 M -105 0 R D 12145 9560 M -105 0 R D 12145 9687 M -105 0 R D
12145 9813 M -105 0 R D 12145 10065 M -105 0 R D 12145 10192 M -105 0 R D
12145 10318 M -105 0 R D 12145 10444 M -105 0 R D 12145 10571 M -105 0 R D
12145 10697 M -105 0 R D 12145 10823 M -105 0 R D 12145 10950 M -105 0 R D
12145 11076 M -105 0 R D 12145 11329 M -105 0 R D 12145 11455 M -105 0 R D
12145 11581 M -105 0 R D 12145 11708 M -105 0 R D 12145 11834 M -105 0 R D
12145 11960 M -105 0 R D 12145 12086 M -105 0 R D 12145 12213 M -105 0 R D
12145 12339 M -105 0 R D 12145 12592 M -105 0 R D 12145 12718 M -105 0 R D
12145 12844 M -105 0 R D 12145 12971 M -105 0 R D 12145 13097 M -105 0 R D
12145 13223 M -105 0 R D 12145 13350 M -105 0 R D 12145 13476 M -105 0 R D
12145 13602 M -105 0 R D 12145 13855 M -105 0 R D 12145 13981 M -105 0 R D
12145 14107 M -105 0 R D 12145 14234 M -105 0 R D 12145 14360 M -105 0 R D
0.000 0.000 0.000 setrgbcolor gsave 6894 6951 translate 0 0 M 1.25 dup scale
-3205.28 0 N
(BHB stars -8) show X 192.937 M
%%IncludeResource: font Symbol
262.467 /Symbol STDFONT
(\260) show X 0 M
%%IncludeResource: font Helvetica
423.333 /Helvetica STDFONT
(<) show CP X 204.996 M
(~) show M X 0 M
(B) show CP X -101.051 M
%%IncludeResource: font AvantGarde-Book
262.467 /AvantGarde-Book STDFONT
(O) show M X -58.3193 M
%%IncludeResource: font AvantGarde-Book
186.267 /AvantGarde-Book STDFONT
( \267) show X 0 M
%%IncludeResource: font Helvetica
423.333 /Helvetica STDFONT
(<0) show X 192.937 M
%%IncludeResource: font Symbol
262.467 /Symbol STDFONT
(\260) show X 0 M
%%IncludeResource: font Helvetica
423.333 /Helvetica STDFONT
(, -55) show X 192.937 M
%%IncludeResource: font Symbol
262.467 /Symbol STDFONT
(\260) show X 0 M
%%IncludeResource: font Helvetica
423.333 /Helvetica STDFONT
(<) show CP X 204.996 M
(~) show M X 0 M
%%IncludeResource: font Symbol
423.333 /Symbol STDFONT
(L) show CP X -95.92 M
%%IncludeResource: font Helvetica
262.467 /Helvetica STDFONT
(O) show M X -55.9518 M
%%IncludeResource: font Helvetica
186.267 /Helvetica STDFONT
( \267) show X 0 M
%%IncludeResource: font Helvetica
423.333 /Helvetica STDFONT
(<-30) show X 192.937 M
%%IncludeResource: font Symbol
262.467 /Symbol STDFONT
(\260) show
%%IncludeResource: font Helvetica
262.467 /Helvetica STDFONT grestore
%%IncludeResource: font Helvetica
423.333 /Helvetica STDFONT 1643 1056 M 10502 0 R D 1643 1056 M 0 114 R D
gsave 1643 528 translate 0 0 M -411.903 0 N
(15.0) show grestore 3210 1056 M 0 114 R D gsave 3210 528 translate 0 0 M
-411.903 0 N
(15.5) show grestore 4778 1056 M 0 114 R D gsave 4778 528 translate 0 0 M
-411.903 0 N
(16.0) show grestore 6345 1056 M 0 114 R D gsave 6345 528 translate 0 0 M
-411.903 0 N
(16.5) show grestore 7913 1056 M 0 114 R D gsave 7913 528 translate 0 0 M
-411.903 0 N
(17.0) show grestore 9480 1056 M 0 114 R D gsave 9480 528 translate 0 0 M
-411.903 0 N
(17.5) show grestore 11048 1056 M 0 114 R D gsave 11048 528 translate 0 0 M
-411.903 0 N
(18.0) show grestore 1956 1056 M 0 57 R D 2270 1056 M 0 57 R D 2583 1056 M
0 57 R D 2897 1056 M 0 57 R D 3524 1056 M 0 57 R D 3837 1056 M 0 57 R D
4151 1056 M 0 57 R D 4464 1056 M 0 57 R D 5091 1056 M 0 57 R D 5405 1056 M
0 57 R D 5718 1056 M 0 57 R D 6032 1056 M 0 57 R D 6659 1056 M 0 57 R D
6972 1056 M 0 57 R D 7286 1056 M 0 57 R D 7599 1056 M 0 57 R D 8226 1056 M
0 57 R D 8540 1056 M 0 57 R D 8853 1056 M 0 57 R D 9167 1056 M 0 57 R D
9794 1056 M 0 57 R D 10107 1056 M 0 57 R D 10421 1056 M 0 57 R D
10734 1056 M 0 57 R D 11361 1056 M 0 57 R D 11675 1056 M 0 57 R D
11988 1056 M 0 57 R D gsave 6894 70 translate 0 0 M -423.122 0 N
(m-M) show grestore 1643 6740 M 10502 0 R D 1643 6740 M 0 -114 R D
3210 6740 M 0 -114 R D 4778 6740 M 0 -114 R D 6345 6740 M 0 -114 R D
7913 6740 M 0 -114 R D 9480 6740 M 0 -114 R D 11048 6740 M 0 -114 R D
1956 6740 M 0 -57 R D 2270 6740 M 0 -57 R D 2583 6740 M 0 -57 R D
2897 6740 M 0 -57 R D 3524 6740 M 0 -57 R D 3837 6740 M 0 -57 R D
4151 6740 M 0 -57 R D 4464 6740 M 0 -57 R D 5091 6740 M 0 -57 R D
5405 6740 M 0 -57 R D 5718 6740 M 0 -57 R D 6032 6740 M 0 -57 R D
6659 6740 M 0 -57 R D 6972 6740 M 0 -57 R D 7286 6740 M 0 -57 R D
7599 6740 M 0 -57 R D 8226 6740 M 0 -57 R D 8540 6740 M 0 -57 R D
8853 6740 M 0 -57 R D 9167 6740 M 0 -57 R D 9794 6740 M 0 -57 R D
10107 6740 M 0 -57 R D 10421 6740 M 0 -57 R D 10734 6740 M 0 -57 R D
11361 6740 M 0 -57 R D 11675 6740 M 0 -57 R D 11988 6740 M 0 -57 R D
1643 1056 M 0 5684 R D 1643 1056 M 210 0 R D gsave 1532 1056 translate 0 0 M
-823.807 0 N
(0.00) show grestore 1643 1880 M 210 0 R D gsave 1532 1739 translate 0 0 M
-823.807 0 N
(0.02) show grestore 1643 2704 M 210 0 R D gsave 1532 2563 translate 0 0 M
-823.807 0 N
(0.04) show grestore 1643 3527 M 210 0 R D gsave 1532 3387 translate 0 0 M
-823.807 0 N
(0.06) show grestore 1643 4351 M 210 0 R D gsave 1532 4210 translate 0 0 M
-823.807 0 N
(0.08) show grestore 1643 5175 M 210 0 R D gsave 1532 5034 translate 0 0 M
-823.807 0 N
(0.10) show grestore 1643 5999 M 210 0 R D gsave 1532 5858 translate 0 0 M
-823.807 0 N
(0.12) show grestore 1643 1262 M 105 0 R D 1643 1468 M 105 0 R D 1643 1674 M
105 0 R D 1643 2086 M 105 0 R D 1643 2292 M 105 0 R D 1643 2498 M 105 0 R D
1643 2910 M 105 0 R D 1643 3115 M 105 0 R D 1643 3321 M 105 0 R D
1643 3733 M 105 0 R D 1643 3939 M 105 0 R D 1643 4145 M 105 0 R D
1643 4557 M 105 0 R D 1643 4763 M 105 0 R D 1643 4969 M 105 0 R D
1643 5381 M 105 0 R D 1643 5587 M 105 0 R D 1643 5793 M 105 0 R D
1643 6205 M 105 0 R D 1643 6411 M 105 0 R D 1643 6617 M 105 0 R D
gsave 376 3898 translate 0 0 M 90 rotate -637.692 0 N
(N/deg) show X 192.937 M
%%IncludeResource: font Helvetica
262.467 /Helvetica STDFONT
(2) show grestore
%%IncludeResource: font Helvetica
423.333 /Helvetica STDFONT 12145 1056 M 0 5684 R D 12145 1056 M -210 0 R D
12145 1880 M -210 0 R D 12145 2704 M -210 0 R D 12145 3527 M -210 0 R D
12145 4351 M -210 0 R D 12145 5175 M -210 0 R D 12145 5999 M -210 0 R D
12145 1262 M -105 0 R D 12145 1468 M -105 0 R D 12145 1674 M -105 0 R D
12145 2086 M -105 0 R D 12145 2292 M -105 0 R D 12145 2498 M -105 0 R D
12145 2910 M -105 0 R D 12145 3115 M -105 0 R D 12145 3321 M -105 0 R D
12145 3733 M -105 0 R D 12145 3939 M -105 0 R D 12145 4145 M -105 0 R D
12145 4557 M -105 0 R D 12145 4763 M -105 0 R D 12145 4969 M -105 0 R D
12145 5381 M -105 0 R D 12145 5587 M -105 0 R D 12145 5793 M -105 0 R D
12145 6205 M -105 0 R D 12145 6411 M -105 0 R D 12145 6617 M -105 0 R D
20 setlinewidth 1800 1880 M 156 0 R 0 -206 R 157 0 R 157 0 R 0 206 R 157 0 R
156 0 R 0 206 R 157 0 R 157 0 R 0 412 R 157 0 R 156 0 R 0 -412 R 157 0 R
157 0 R 0 412 R 157 0 R 156 0 R 0 -412 R 157 0 R 157 0 R 0 -824 R 157 0 R
156 0 R 0 1236 R 157 0 R 157 0 R 0 823 R 157 0 R 156 0 R 0 -823 R 157 0 R
157 0 R 0 2677 R 157 0 R 156 0 R 0 -618 R 157 0 R 157 0 R 0 -824 R 157 0 R
156 0 R 0 -1029 R 157 0 R 157 0 R 0 1441 R 157 0 R 156 0 R 0 618 R 157 0 R
157 0 R 157 0 R 156 0 R 0 1030 R 157 0 R 157 0 R 0 -824 R 157 0 R 156 0 R
0 -412 R 157 0 R 157 0 R 0 618 R 157 0 R 156 0 R 0 -1236 R 157 0 R 157 0 R
0 -1647 R 157 0 R 156 0 R 0 206 R 157 0 R 157 0 R 0 823 R 157 0 R 156 0 R
0 -411 R 157 0 R 157 0 R 0 411 R 157 0 R 156 0 R 0 -617 R 157 0 R 157 0 R
0 -206 R 157 0 R 156 0 R 0 1029 R 157 0 R 157 0 R 0 -823 R 157 0 R D
gsave 4464 6172 translate 0 0 M 0.9 dup scale
(Stream 2) show grestore gsave 7286 6172 translate 0 0 M 0.9 dup scale
(Stream 1) show grestore
%%PageTrailer
end
%%PageResources: font Helvetica
%%+ font Symbol
%%+ font AvantGarde-Book
%%Trailer
%%Pages: 1
%%DocumentNeededResources: font Helvetica
%%+ font Symbol
%%+ font AvantGarde-Book
%%EOF
