%!PS-Adobe-3.0 EPSF-3.0
%%BoundingBox: 0 0 504 194
%%Title: Graphics produced by IDL
%%For: vasily@camd38.ast.cam.ac.uk, 
%%      /Users/vasily/Dropbox/idl/work/vst_atlas
%%Creator: IDL Version 8.4.1, Mac OS X (darwin x86_64 m64)
%%CreationDate: Tue Sep 20 13:25:30 2016
%%DocumentData: Clean7bit
%%Requirements: color
%%LanguageLevel: 1
%%PageOrder: Ascend
%%Pages: (atend)
%%DocumentNeededResources: (atend)
%%EndComments
%%BeginProlog
%+ prolog.ps -- Prolog for IDL generated PostScript files
%+ Copyright (c) 1988-2015 Exelis Visual Information Solutions, Inc. All Rights Reserved.
%v 5
/$IDL_DICT 40 dict def $IDL_DICT begin /bdef { bind def } bind def /C
{currentpoint newpath moveto} bdef /CP {currentpoint} bdef /D {currentpoint
stroke moveto} bdef /F {closepath fill} bdef /K { setgray } bdef /M {moveto}
bdef /N {rmoveto} bdef /P {lineto} bdef /R {rlineto} bdef /S {gsave show
grestore} bdef /X {currentpoint pop} bdef /Z {gsave currentpoint lineto 20
setlinewidth 1 setlinecap stroke grestore} bdef /L0 {[] 0 setdash} bdef /L1
{[40 100] 0 setdash} bdef /L2 {[200 200] 0 setdash} bdef /L3 {[200 100 50
100] 0 setdash} bdef /L4 {[300 100 50 100 50 100 50 100] 0 setdash} bdef /L5
{[400 200] 0 setdash} bdef /STDFONT { findfont exch scalefont setfont } bdef
/ISOFONT { findfont dup length dict begin { 1 index /FID ne {def} {pop pop}
ifelse } forall /Encoding ISOLatin1Encoding def currentdict end /idltmpfont
exch definefont exch scalefont setfont } bdef /ISOBULLET { gsave /Helvetica
findfont exch scalefont setfont (\267) show currentpoint grestore moveto}
bdef /MITERLIMIT { 2.5 setmiterlimit } bdef end
%%EndProlog
%%Page: 0 1
%%PageRequirements: color
%%PageResources: (atend)
%%PageOrientation: Portrait
%%PageBoundingBox: 0 0 504 194
%%BeginPageSetup
$IDL_DICT begin 0.0283465 dup scale MITERLIMIT
%%IncludeResource: font Helvetica
423.333 /Helvetica STDFONT
%%EndPageSetup
0.000 0.000 0.000 setrgbcolor gsave 3352 6390 translate 0 0 M
0.875 dup scale -1752.29 0 N
(SGB, -55) show X 192.937 M
%%IncludeResource: font Symbol
262.467 /Symbol STDFONT
(\260) show X 0 M
%%IncludeResource: font Helvetica
423.333 /Helvetica STDFONT
(<) show CP X 204.996 M
(~) show M X 0 M
%%IncludeResource: font Symbol
423.333 /Symbol STDFONT
(L) show CP X -95.92 M
%%IncludeResource: font Helvetica
262.467 /Helvetica STDFONT
(O) show M X -55.9518 M
%%IncludeResource: font Helvetica
186.267 /Helvetica STDFONT
( \267) show X 0 M
%%IncludeResource: font Helvetica
423.333 /Helvetica STDFONT
(<-40) show X 192.937 M
%%IncludeResource: font Symbol
262.467 /Symbol STDFONT
(\260) show
%%IncludeResource: font Helvetica
262.467 /Helvetica STDFONT grestore
%%IncludeResource: font Helvetica
423.333 /Helvetica STDFONT 10 setlinewidth L0 932 862 M 4839 0 R D
1470 862 M 0 108 R D gsave 1470 493 translate 0 0 M 0.7 dup scale
-305.858 0 N
(-10) show grestore 2238 862 M 0 108 R D gsave 2238 493 translate 0 0 M
0.7 dup scale -188.172 0 N
(-5) show grestore 3006 862 M 0 108 R D gsave 3006 493 translate 0 0 M
0.7 dup scale -117.687 0 N
(0) show grestore 3774 862 M 0 108 R D gsave 3774 493 translate 0 0 M
0.7 dup scale -117.687 0 N
(5) show grestore 4542 862 M 0 108 R D gsave 4542 493 translate 0 0 M
0.7 dup scale -235.373 0 N
(10) show grestore 5311 862 M 0 108 R D gsave 5311 493 translate 0 0 M
0.7 dup scale -235.373 0 N
(15) show grestore 1009 862 M 0 54 R D 1163 862 M 0 54 R D 1317 862 M 0 54 R
D 1624 862 M 0 54 R D 1777 862 M 0 54 R D 1931 862 M 0 54 R D 2085 862 M
0 54 R D 2392 862 M 0 54 R D 2545 862 M 0 54 R D 2699 862 M 0 54 R D
2853 862 M 0 54 R D 3160 862 M 0 54 R D 3314 862 M 0 54 R D 3467 862 M
0 54 R D 3621 862 M 0 54 R D 3928 862 M 0 54 R D 4082 862 M 0 54 R D
4235 862 M 0 54 R D 4389 862 M 0 54 R D 4696 862 M 0 54 R D 4850 862 M
0 54 R D 5003 862 M 0 54 R D 5157 862 M 0 54 R D 5464 862 M 0 54 R D
5618 862 M 0 54 R D 5771 862 M 0 54 R D gsave 3352 173 translate 0 0 M
0.7 dup scale -255.223 0 N CP X 204.996 M
(~) show M X 0 M
(B) show CP X -101.051 M
%%IncludeResource: font AvantGarde-Book
262.467 /AvantGarde-Book STDFONT
(O) show M X -58.3193 M
%%IncludeResource: font AvantGarde-Book
186.267 /AvantGarde-Book STDFONT
( \267) show
%%IncludeResource: font Helvetica
186.267 /Helvetica STDFONT grestore
%%IncludeResource: font Helvetica
423.333 /Helvetica STDFONT 932 6242 M 4839 0 R D 1470 6242 M 0 -108 R D
2238 6242 M 0 -108 R D 3006 6242 M 0 -108 R D 3774 6242 M 0 -108 R D
4542 6242 M 0 -108 R D 5311 6242 M 0 -108 R D 1009 6242 M 0 -54 R D
1163 6242 M 0 -54 R D 1317 6242 M 0 -54 R D 1624 6242 M 0 -54 R D
1777 6242 M 0 -54 R D 1931 6242 M 0 -54 R D 2085 6242 M 0 -54 R D
2392 6242 M 0 -54 R D 2545 6242 M 0 -54 R D 2699 6242 M 0 -54 R D
2853 6242 M 0 -54 R D 3160 6242 M 0 -54 R D 3314 6242 M 0 -54 R D
3467 6242 M 0 -54 R D 3621 6242 M 0 -54 R D 3928 6242 M 0 -54 R D
4082 6242 M 0 -54 R D 4235 6242 M 0 -54 R D 4389 6242 M 0 -54 R D
4696 6242 M 0 -54 R D 4850 6242 M 0 -54 R D 5003 6242 M 0 -54 R D
5157 6242 M 0 -54 R D 5464 6242 M 0 -54 R D 5618 6242 M 0 -54 R D
5771 6242 M 0 -54 R D 932 862 M 0 5380 R D 932 1610 M 97 0 R D
gsave 855 1511 translate 0 0 M 0.7 dup scale -470.747 0 N
(30) show grestore 932 3104 M 97 0 R D gsave 855 3005 translate 0 0 M
0.7 dup scale -470.747 0 N
(40) show grestore 932 4598 M 97 0 R D gsave 855 4500 translate 0 0 M
0.7 dup scale -470.747 0 N
(50) show grestore 932 6093 M 97 0 R D gsave 855 5994 translate 0 0 M
0.7 dup scale -470.747 0 N
(60) show grestore 932 862 M 49 0 R D 932 1012 M 49 0 R D 932 1161 M 49 0 R
D 932 1311 M 49 0 R D 932 1460 M 49 0 R D 932 1759 M 49 0 R D 932 1908 M
49 0 R D 932 2058 M 49 0 R D 932 2207 M 49 0 R D 932 2357 M 49 0 R D
932 2506 M 49 0 R D 932 2656 M 49 0 R D 932 2805 M 49 0 R D 932 2955 M
49 0 R D 932 3253 M 49 0 R D 932 3403 M 49 0 R D 932 3552 M 49 0 R D
932 3702 M 49 0 R D 932 3851 M 49 0 R D 932 4001 M 49 0 R D 932 4150 M
49 0 R D 932 4299 M 49 0 R D 932 4449 M 49 0 R D 932 4748 M 49 0 R D
932 4897 M 49 0 R D 932 5047 M 49 0 R D 932 5196 M 49 0 R D 932 5345 M
49 0 R D 932 5495 M 49 0 R D 932 5644 M 49 0 R D 932 5794 M 49 0 R D
932 5943 M 49 0 R D 932 6242 M 49 0 R D gsave 293 3552 translate 0 0 M
90 rotate 0.7 dup scale -1541.15 0 N
(stars per degree) show grestore 5771 862 M 0 5380 R D 5771 1610 M -96 0 R D
5771 3104 M -96 0 R D 5771 4598 M -96 0 R D 5771 6093 M -96 0 R D 5771 862 M
-48 0 R D 5771 1012 M -48 0 R D 5771 1161 M -48 0 R D 5771 1311 M -48 0 R D
5771 1460 M -48 0 R D 5771 1759 M -48 0 R D 5771 1908 M -48 0 R D
5771 2058 M -48 0 R D 5771 2207 M -48 0 R D 5771 2357 M -48 0 R D
5771 2506 M -48 0 R D 5771 2656 M -48 0 R D 5771 2805 M -48 0 R D
5771 2955 M -48 0 R D 5771 3253 M -48 0 R D 5771 3403 M -48 0 R D
5771 3552 M -48 0 R D 5771 3702 M -48 0 R D 5771 3851 M -48 0 R D
5771 4001 M -48 0 R D 5771 4150 M -48 0 R D 5771 4299 M -48 0 R D
5771 4449 M -48 0 R D 5771 4748 M -48 0 R D 5771 4897 M -48 0 R D
5771 5047 M -48 0 R D 5771 5196 M -48 0 R D 5771 5345 M -48 0 R D
5771 5495 M -48 0 R D 5771 5644 M -48 0 R D 5771 5794 M -48 0 R D
5771 5943 M -48 0 R D 5771 6242 M -48 0 R D 20 setlinewidth 1677 862 M
0 190 R 186 0 R 186 0 R 0 159 R 186 0 R 186 0 R 0 150 R 186 0 R 187 0 R
0 59 R 186 0 R 186 0 R 0 229 R 186 0 R 186 0 R 0 -249 R 186 0 R 186 0 R
0 -59 R 186 0 R 186 0 R 0 328 R 187 0 R 186 0 R 0 -229 R 186 0 R 186 0 R
0 -578 R D L1 1.000 0.000 0.000 setrgbcolor 1723 862 M 0 638 R 186 0 R
186 0 R 0 349 R 186 0 R 186 0 R 0 109 R 187 0 R 186 0 R 0 558 R 186 0 R
186 0 R 0 100 R 186 0 R 186 0 R 0 -409 R 186 0 R 186 0 R 0 269 R 186 0 R
187 0 R 0 -299 R 186 0 R 186 0 R 0 90 R 186 0 R 186 0 R 0 -1076 R 186 0 R
186 0 R 0 -329 R D 1240 5644 M 537 0 R D gsave 1931 5644 translate 0 0 M
0.8 dup scale
(SGB 1) show grestore L0 0.000 0.000 0.000 setrgbcolor 1240 5196 M 537 0 R D
gsave 1931 5196 translate 0 0 M 0.8 dup scale
(SGB 2) show grestore gsave 9279 6390 translate 0 0 M 0.875 dup scale
-1752.29 0 N
(SGB, -40) show X 192.937 M
%%IncludeResource: font Symbol
262.467 /Symbol STDFONT
(\260) show X 0 M
%%IncludeResource: font Helvetica
423.333 /Helvetica STDFONT
(<) show CP X 204.996 M
(~) show M X 0 M
%%IncludeResource: font Symbol
423.333 /Symbol STDFONT
(L) show CP X -95.92 M
%%IncludeResource: font Helvetica
262.467 /Helvetica STDFONT
(O) show M X -55.9518 M
%%IncludeResource: font Helvetica
186.267 /Helvetica STDFONT
( \267) show X 0 M
%%IncludeResource: font Helvetica
423.333 /Helvetica STDFONT
(<-34) show X 192.937 M
%%IncludeResource: font Symbol
262.467 /Symbol STDFONT
(\260) show
%%IncludeResource: font Helvetica
262.467 /Helvetica STDFONT grestore
%%IncludeResource: font Helvetica
423.333 /Helvetica STDFONT 10 setlinewidth 6859 862 M 4839 0 R D 7397 862 M
0 108 R D gsave 7397 493 translate 0 0 M 0.7 dup scale -305.858 0 N
(-10) show grestore 8165 862 M 0 108 R D gsave 8165 493 translate 0 0 M
0.7 dup scale -188.172 0 N
(-5) show grestore 8933 862 M 0 108 R D gsave 8933 493 translate 0 0 M
0.7 dup scale -117.687 0 N
(0) show grestore 9701 862 M 0 108 R D gsave 9701 493 translate 0 0 M
0.7 dup scale -117.687 0 N
(5) show grestore 10469 862 M 0 108 R D gsave 10469 493 translate 0 0 M
0.7 dup scale -235.373 0 N
(10) show grestore 11237 862 M 0 108 R D gsave 11237 493 translate 0 0 M
0.7 dup scale -235.373 0 N
(15) show grestore 6936 862 M 0 54 R D 7090 862 M 0 54 R D 7243 862 M 0 54 R
D 7550 862 M 0 54 R D 7704 862 M 0 54 R D 7858 862 M 0 54 R D 8011 862 M
0 54 R D 8318 862 M 0 54 R D 8472 862 M 0 54 R D 8626 862 M 0 54 R D
8779 862 M 0 54 R D 9087 862 M 0 54 R D 9240 862 M 0 54 R D 9394 862 M
0 54 R D 9547 862 M 0 54 R D 9855 862 M 0 54 R D 10008 862 M 0 54 R D
10162 862 M 0 54 R D 10315 862 M 0 54 R D 10623 862 M 0 54 R D 10776 862 M
0 54 R D 10930 862 M 0 54 R D 11084 862 M 0 54 R D 11391 862 M 0 54 R D
11544 862 M 0 54 R D 11698 862 M 0 54 R D gsave 9279 173 translate 0 0 M
0.7 dup scale -255.223 0 N CP X 204.996 M
(~) show M X 0 M
(B) show CP X -101.051 M
%%IncludeResource: font AvantGarde-Book
262.467 /AvantGarde-Book STDFONT
(O) show M X -58.3193 M
%%IncludeResource: font AvantGarde-Book
186.267 /AvantGarde-Book STDFONT
( \267) show
%%IncludeResource: font Helvetica
186.267 /Helvetica STDFONT grestore
%%IncludeResource: font Helvetica
423.333 /Helvetica STDFONT 6859 6242 M 4839 0 R D 7397 6242 M 0 -108 R D
8165 6242 M 0 -108 R D 8933 6242 M 0 -108 R D 9701 6242 M 0 -108 R D
10469 6242 M 0 -108 R D 11237 6242 M 0 -108 R D 6936 6242 M 0 -54 R D
7090 6242 M 0 -54 R D 7243 6242 M 0 -54 R D 7550 6242 M 0 -54 R D
7704 6242 M 0 -54 R D 7858 6242 M 0 -54 R D 8011 6242 M 0 -54 R D
8318 6242 M 0 -54 R D 8472 6242 M 0 -54 R D 8626 6242 M 0 -54 R D
8779 6242 M 0 -54 R D 9087 6242 M 0 -54 R D 9240 6242 M 0 -54 R D
9394 6242 M 0 -54 R D 9547 6242 M 0 -54 R D 9855 6242 M 0 -54 R D
10008 6242 M 0 -54 R D 10162 6242 M 0 -54 R D 10315 6242 M 0 -54 R D
10623 6242 M 0 -54 R D 10776 6242 M 0 -54 R D 10930 6242 M 0 -54 R D
11084 6242 M 0 -54 R D 11391 6242 M 0 -54 R D 11544 6242 M 0 -54 R D
11698 6242 M 0 -54 R D 6859 862 M 0 5380 R D 6859 1610 M 97 0 R D
gsave 6781 1511 translate 0 0 M 0.7 dup scale -470.747 0 N
(30) show grestore 6859 3104 M 97 0 R D gsave 6781 3005 translate 0 0 M
0.7 dup scale -470.747 0 N
(40) show grestore 6859 4598 M 97 0 R D gsave 6781 4500 translate 0 0 M
0.7 dup scale -470.747 0 N
(50) show grestore 6859 6093 M 97 0 R D gsave 6781 5994 translate 0 0 M
0.7 dup scale -470.747 0 N
(60) show grestore 6859 862 M 49 0 R D 6859 1012 M 49 0 R D 6859 1161 M
49 0 R D 6859 1311 M 49 0 R D 6859 1460 M 49 0 R D 6859 1759 M 49 0 R D
6859 1908 M 49 0 R D 6859 2058 M 49 0 R D 6859 2207 M 49 0 R D 6859 2357 M
49 0 R D 6859 2506 M 49 0 R D 6859 2656 M 49 0 R D 6859 2805 M 49 0 R D
6859 2955 M 49 0 R D 6859 3253 M 49 0 R D 6859 3403 M 49 0 R D 6859 3552 M
49 0 R D 6859 3702 M 49 0 R D 6859 3851 M 49 0 R D 6859 4001 M 49 0 R D
6859 4150 M 49 0 R D 6859 4299 M 49 0 R D 6859 4449 M 49 0 R D 6859 4748 M
49 0 R D 6859 4897 M 49 0 R D 6859 5047 M 49 0 R D 6859 5196 M 49 0 R D
6859 5345 M 49 0 R D 6859 5495 M 49 0 R D 6859 5644 M 49 0 R D 6859 5794 M
49 0 R D 6859 5943 M 49 0 R D 6859 6242 M 49 0 R D
gsave 6219 3552 translate 0 0 M 90 rotate 0.7 dup scale -1541.15 0 N
(stars per degree) show grestore 11698 862 M 0 5380 R D 11698 1610 M -97 0 R
D 11698 3104 M -97 0 R D 11698 4598 M -97 0 R D 11698 6093 M -97 0 R D
11698 862 M -48 0 R D 11698 1012 M -48 0 R D 11698 1161 M -48 0 R D
11698 1311 M -48 0 R D 11698 1460 M -48 0 R D 11698 1759 M -48 0 R D
11698 1908 M -48 0 R D 11698 2058 M -48 0 R D 11698 2207 M -48 0 R D
11698 2357 M -48 0 R D 11698 2506 M -48 0 R D 11698 2656 M -48 0 R D
11698 2805 M -48 0 R D 11698 2955 M -48 0 R D 11698 3253 M -48 0 R D
11698 3403 M -48 0 R D 11698 3552 M -48 0 R D 11698 3702 M -48 0 R D
11698 3851 M -48 0 R D 11698 4001 M -48 0 R D 11698 4150 M -48 0 R D
11698 4299 M -48 0 R D 11698 4449 M -48 0 R D 11698 4748 M -48 0 R D
11698 4897 M -48 0 R D 11698 5047 M -48 0 R D 11698 5196 M -48 0 R D
11698 5345 M -48 0 R D 11698 5495 M -48 0 R D 11698 5644 M -48 0 R D
11698 5794 M -48 0 R D 11698 5943 M -48 0 R D 11698 6242 M -48 0 R D
20 setlinewidth 7231 862 M 0 2269 R 186 0 R 187 0 R 0 82 R 186 0 R 186 0 R
0 896 R 186 0 R 186 0 R 0 707 R 186 0 R 186 0 R 0 -951 R 186 0 R 186 0 R
0 81 R 187 0 R 186 0 R 0 272 R 186 0 R 186 0 R 0 109 R 186 0 R 186 0 R
0 194 R 186 0 R 186 0 R 0 -240 R 186 0 R 187 0 R 0 -55 R 186 0 R 186 0 R
0 -289 R 186 0 R D L1 1.000 0.000 0.000 setrgbcolor 7277 862 M 0 1209 R
187 0 R 186 0 R 0 1957 R 186 0 R 186 0 R 0 299 R 186 0 R 186 0 R 0 -136 R
186 0 R 186 0 R 0 1168 R 186 0 R 187 0 R 0 652 R 186 0 R 186 0 R 0 -570 R
186 0 R 186 0 R 0 -816 R 186 0 R 186 0 R 0 -48 R 186 0 R 186 0 R 0 -24 R
187 0 R 186 0 R 0 133 R 186 0 R 186 0 R 0 -97 R 186 0 R D 10 setlinewidth L0
0.000 0.000 0.000 setrgbcolor 9601 1303 M 1778 0 R D 9601 1303 M 0 25 R D
gsave 9601 1092 translate 0 0 M 0.4 dup scale -305.858 0 N
(-55) show grestore 10046 1303 M 0 25 R D gsave 10046 1092 translate 0 0 M
0.4 dup scale -305.858 0 N
(-50) show grestore 10490 1303 M 0 25 R D gsave 10490 1092 translate 0 0 M
0.4 dup scale -305.858 0 N
(-45) show grestore 10935 1303 M 0 25 R D gsave 10935 1092 translate 0 0 M
0.4 dup scale -305.858 0 N
(-40) show grestore 11379 1303 M 0 25 R D gsave 11379 1092 translate 0 0 M
0.4 dup scale -305.858 0 N
(-35) show grestore 9690 1303 M 0 12 R D 9779 1303 M 0 12 R D 9868 1303 M
0 12 R D 9957 1303 M 0 12 R D 10135 1303 M 0 12 R D 10224 1303 M 0 12 R D
10312 1303 M 0 12 R D 10401 1303 M 0 12 R D 10579 1303 M 0 12 R D
10668 1303 M 0 12 R D 10757 1303 M 0 12 R D 10846 1303 M 0 12 R D
11024 1303 M 0 12 R D 11113 1303 M 0 12 R D 11201 1303 M 0 12 R D
11290 1303 M 0 12 R D 9601 2537 M 1778 0 R D 9601 2537 M 0 -24 R D
10046 2537 M 0 -24 R D 10490 2537 M 0 -24 R D 10935 2537 M 0 -24 R D
11379 2537 M 0 -24 R D 9690 2537 M 0 -12 R D 9779 2537 M 0 -12 R D
9868 2537 M 0 -12 R D 9957 2537 M 0 -12 R D 10135 2537 M 0 -12 R D
10224 2537 M 0 -12 R D 10312 2537 M 0 -12 R D 10401 2537 M 0 -12 R D
10579 2537 M 0 -12 R D 10668 2537 M 0 -12 R D 10757 2537 M 0 -12 R D
10846 2537 M 0 -12 R D 11024 2537 M 0 -12 R D 11113 2537 M 0 -12 R D
11201 2537 M 0 -12 R D 11290 2537 M 0 -12 R D 9601 1303 M 0 1234 R D
9601 1303 M 36 0 R D gsave 9557 1303 translate 0 0 M 0.4 dup scale
-823.807 0 N
(18.5) show grestore 9601 1550 M 36 0 R D gsave 9557 1494 translate 0 0 M
0.4 dup scale -823.807 0 N
(19.0) show grestore 9601 1797 M 36 0 R D gsave 9557 1740 translate 0 0 M
0.4 dup scale -823.807 0 N
(19.5) show grestore 9601 2044 M 36 0 R D gsave 9557 1987 translate 0 0 M
0.4 dup scale -823.807 0 N
(20.0) show grestore 9601 2291 M 36 0 R D gsave 9557 2234 translate 0 0 M
0.4 dup scale -823.807 0 N
(20.5) show grestore 9601 2537 M 36 0 R D gsave 9557 2439 translate 0 0 M
0.4 dup scale -823.807 0 N
(21.0) show grestore 9601 1352 M 18 0 R D 9601 1402 M 18 0 R D 9601 1451 M
18 0 R D 9601 1501 M 18 0 R D 9601 1599 M 18 0 R D 9601 1649 M 18 0 R D
9601 1698 M 18 0 R D 9601 1747 M 18 0 R D 9601 1846 M 18 0 R D 9601 1896 M
18 0 R D 9601 1945 M 18 0 R D 9601 1994 M 18 0 R D 9601 2093 M 18 0 R D
9601 2142 M 18 0 R D 9601 2192 M 18 0 R D 9601 2241 M 18 0 R D 9601 2340 M
18 0 R D 9601 2389 M 18 0 R D 9601 2439 M 18 0 R D 9601 2488 M 18 0 R D
11379 1303 M 0 1234 R D 11379 1303 M -35 0 R D 11379 1550 M -35 0 R D
11379 1797 M -35 0 R D 11379 2044 M -35 0 R D 11379 2291 M -35 0 R D
11379 2537 M -35 0 R D 11379 1352 M -18 0 R D 11379 1402 M -18 0 R D
11379 1451 M -18 0 R D 11379 1501 M -18 0 R D 11379 1599 M -18 0 R D
11379 1649 M -18 0 R D 11379 1698 M -18 0 R D 11379 1747 M -18 0 R D
11379 1846 M -18 0 R D 11379 1896 M -18 0 R D 11379 1945 M -18 0 R D
11379 1994 M -18 0 R D 11379 2093 M -18 0 R D 11379 2142 M -18 0 R D
11379 2192 M -18 0 R D 11379 2241 M -18 0 R D 11379 2340 M -18 0 R D
11379 2389 M -18 0 R D 11379 2439 M -18 0 R D 11379 2488 M -18 0 R D
9601 1747 M 445 -24 R 889 -50 R 444 -25 R D 11379 1846 M -444 0 R -889 40 R
-445 29 R D 1.000 0.000 0.000 setrgbcolor 9601 1945 M 1778 0 R D
11379 2142 M -1778 0 R D gsave 10046 2192 translate 0 0 M 0.7 dup scale
(SGB 1) show grestore 0.000 0.000 0.000 setrgbcolor
gsave 10046 1451 translate 0 0 M 0.7 dup scale
(SGB 2) show grestore gsave 15205 6390 translate 0 0 M 0.875 dup scale
-1740.43 0 N
(BHB, -50) show X 192.937 M
%%IncludeResource: font Symbol
262.467 /Symbol STDFONT
(\260) show X 0 M
%%IncludeResource: font Helvetica
423.333 /Helvetica STDFONT
(<) show CP X 204.996 M
(~) show M X 0 M
%%IncludeResource: font Symbol
423.333 /Symbol STDFONT
(L) show CP X -95.92 M
%%IncludeResource: font Helvetica
262.467 /Helvetica STDFONT
(O) show M X -55.9518 M
%%IncludeResource: font Helvetica
186.267 /Helvetica STDFONT
( \267) show X 0 M
%%IncludeResource: font Helvetica
423.333 /Helvetica STDFONT
(<-30) show X 192.937 M
%%IncludeResource: font Symbol
262.467 /Symbol STDFONT
(\260) show
%%IncludeResource: font Helvetica
262.467 /Helvetica STDFONT grestore
%%IncludeResource: font Helvetica
423.333 /Helvetica STDFONT 12786 862 M 4839 0 R D 13323 862 M 0 108 R D
gsave 13323 493 translate 0 0 M 0.7 dup scale -305.858 0 N
(-10) show grestore 14092 862 M 0 108 R D gsave 14092 493 translate 0 0 M
0.7 dup scale -188.172 0 N
(-5) show grestore 14860 862 M 0 108 R D gsave 14860 493 translate 0 0 M
0.7 dup scale -117.687 0 N
(0) show grestore 15628 862 M 0 108 R D gsave 15628 493 translate 0 0 M
0.7 dup scale -117.687 0 N
(5) show grestore 16396 862 M 0 108 R D gsave 16396 493 translate 0 0 M
0.7 dup scale -235.373 0 N
(10) show grestore 17164 862 M 0 108 R D gsave 17164 493 translate 0 0 M
0.7 dup scale -235.373 0 N
(15) show grestore 12863 862 M 0 54 R D 13016 862 M 0 54 R D 13170 862 M
0 54 R D 13477 862 M 0 54 R D 13631 862 M 0 54 R D 13784 862 M 0 54 R D
13938 862 M 0 54 R D 14245 862 M 0 54 R D 14399 862 M 0 54 R D 14552 862 M
0 54 R D 14706 862 M 0 54 R D 15013 862 M 0 54 R D 15167 862 M 0 54 R D
15320 862 M 0 54 R D 15474 862 M 0 54 R D 15781 862 M 0 54 R D 15935 862 M
0 54 R D 16089 862 M 0 54 R D 16242 862 M 0 54 R D 16549 862 M 0 54 R D
16703 862 M 0 54 R D 16857 862 M 0 54 R D 17010 862 M 0 54 R D 17317 862 M
0 54 R D 17471 862 M 0 54 R D 17625 862 M 0 54 R D
gsave 15205 173 translate 0 0 M 0.7 dup scale -255.223 0 N CP X 204.996 M
(~) show M X 0 M
(B) show CP X -101.051 M
%%IncludeResource: font AvantGarde-Book
262.467 /AvantGarde-Book STDFONT
(O) show M X -58.3193 M
%%IncludeResource: font AvantGarde-Book
186.267 /AvantGarde-Book STDFONT
( \267) show
%%IncludeResource: font Helvetica
186.267 /Helvetica STDFONT grestore
%%IncludeResource: font Helvetica
423.333 /Helvetica STDFONT 12786 6242 M 4839 0 R D 13323 6242 M 0 -108 R D
14092 6242 M 0 -108 R D 14860 6242 M 0 -108 R D 15628 6242 M 0 -108 R D
16396 6242 M 0 -108 R D 17164 6242 M 0 -108 R D 12863 6242 M 0 -54 R D
13016 6242 M 0 -54 R D 13170 6242 M 0 -54 R D 13477 6242 M 0 -54 R D
13631 6242 M 0 -54 R D 13784 6242 M 0 -54 R D 13938 6242 M 0 -54 R D
14245 6242 M 0 -54 R D 14399 6242 M 0 -54 R D 14552 6242 M 0 -54 R D
14706 6242 M 0 -54 R D 15013 6242 M 0 -54 R D 15167 6242 M 0 -54 R D
15320 6242 M 0 -54 R D 15474 6242 M 0 -54 R D 15781 6242 M 0 -54 R D
15935 6242 M 0 -54 R D 16089 6242 M 0 -54 R D 16242 6242 M 0 -54 R D
16549 6242 M 0 -54 R D 16703 6242 M 0 -54 R D 16857 6242 M 0 -54 R D
17010 6242 M 0 -54 R D 17317 6242 M 0 -54 R D 17471 6242 M 0 -54 R D
17625 6242 M 0 -54 R D 12786 862 M 0 5380 R D 12786 862 M 97 0 R D
gsave 12708 862 translate 0 0 M 0.7 dup scale -235.373 0 N
(0) show grestore 12786 1663 M 97 0 R D gsave 12708 1564 translate 0 0 M
0.7 dup scale -470.747 0 N
(10) show grestore 12786 2464 M 97 0 R D gsave 12708 2365 translate 0 0 M
0.7 dup scale -470.747 0 N
(20) show grestore 12786 3264 M 97 0 R D gsave 12708 3165 translate 0 0 M
0.7 dup scale -470.747 0 N
(30) show grestore 12786 4065 M 97 0 R D gsave 12708 3966 translate 0 0 M
0.7 dup scale -470.747 0 N
(40) show grestore 12786 4865 M 97 0 R D gsave 12708 4767 translate 0 0 M
0.7 dup scale -470.747 0 N
(50) show grestore 12786 5666 M 97 0 R D gsave 12708 5567 translate 0 0 M
0.7 dup scale -470.747 0 N
(60) show grestore 12786 942 M 48 0 R D 12786 1023 M 48 0 R D 12786 1103 M
48 0 R D 12786 1183 M 48 0 R D 12786 1263 M 48 0 R D 12786 1343 M 48 0 R D
12786 1423 M 48 0 R D 12786 1503 M 48 0 R D 12786 1583 M 48 0 R D
12786 1743 M 48 0 R D 12786 1823 M 48 0 R D 12786 1903 M 48 0 R D
12786 1983 M 48 0 R D 12786 2063 M 48 0 R D 12786 2143 M 48 0 R D
12786 2223 M 48 0 R D 12786 2303 M 48 0 R D 12786 2383 M 48 0 R D
12786 2544 M 48 0 R D 12786 2624 M 48 0 R D 12786 2704 M 48 0 R D
12786 2784 M 48 0 R D 12786 2864 M 48 0 R D 12786 2944 M 48 0 R D
12786 3024 M 48 0 R D 12786 3104 M 48 0 R D 12786 3184 M 48 0 R D
12786 3344 M 48 0 R D 12786 3424 M 48 0 R D 12786 3504 M 48 0 R D
12786 3584 M 48 0 R D 12786 3664 M 48 0 R D 12786 3744 M 48 0 R D
12786 3824 M 48 0 R D 12786 3904 M 48 0 R D 12786 3985 M 48 0 R D
12786 4145 M 48 0 R D 12786 4225 M 48 0 R D 12786 4305 M 48 0 R D
12786 4385 M 48 0 R D 12786 4465 M 48 0 R D 12786 4545 M 48 0 R D
12786 4625 M 48 0 R D 12786 4705 M 48 0 R D 12786 4785 M 48 0 R D
12786 4945 M 48 0 R D 12786 5025 M 48 0 R D 12786 5105 M 48 0 R D
12786 5185 M 48 0 R D 12786 5265 M 48 0 R D 12786 5345 M 48 0 R D
12786 5425 M 48 0 R D 12786 5506 M 48 0 R D 12786 5586 M 48 0 R D
12786 5746 M 48 0 R D 12786 5826 M 48 0 R D 12786 5906 M 48 0 R D
12786 5986 M 48 0 R D 12786 6066 M 48 0 R D 12786 6146 M 48 0 R D
12786 6226 M 48 0 R D gsave 12146 3552 translate 0 0 M 90 rotate
0.7 dup scale -1505.58 0 N
(Number of stars) show grestore 17625 862 M 0 5380 R D 17625 862 M -97 0 R D
17625 1663 M -97 0 R D 17625 2464 M -97 0 R D 17625 3264 M -97 0 R D
17625 4065 M -97 0 R D 17625 4865 M -97 0 R D 17625 5666 M -97 0 R D
17625 942 M -49 0 R D 17625 1023 M -49 0 R D 17625 1103 M -49 0 R D
17625 1183 M -49 0 R D 17625 1263 M -49 0 R D 17625 1343 M -49 0 R D
17625 1423 M -49 0 R D 17625 1503 M -49 0 R D 17625 1583 M -49 0 R D
17625 1743 M -49 0 R D 17625 1823 M -49 0 R D 17625 1903 M -49 0 R D
17625 1983 M -49 0 R D 17625 2063 M -49 0 R D 17625 2143 M -49 0 R D
17625 2223 M -49 0 R D 17625 2303 M -49 0 R D 17625 2383 M -49 0 R D
17625 2544 M -49 0 R D 17625 2624 M -49 0 R D 17625 2704 M -49 0 R D
17625 2784 M -49 0 R D 17625 2864 M -49 0 R D 17625 2944 M -49 0 R D
17625 3024 M -49 0 R D 17625 3104 M -49 0 R D 17625 3184 M -49 0 R D
17625 3344 M -49 0 R D 17625 3424 M -49 0 R D 17625 3504 M -49 0 R D
17625 3584 M -49 0 R D 17625 3664 M -49 0 R D 17625 3744 M -49 0 R D
17625 3824 M -49 0 R D 17625 3904 M -49 0 R D 17625 3985 M -49 0 R D
17625 4145 M -49 0 R D 17625 4225 M -49 0 R D 17625 4305 M -49 0 R D
17625 4385 M -49 0 R D 17625 4465 M -49 0 R D 17625 4545 M -49 0 R D
17625 4625 M -49 0 R D 17625 4705 M -49 0 R D 17625 4785 M -49 0 R D
17625 4945 M -49 0 R D 17625 5025 M -49 0 R D 17625 5105 M -49 0 R D
17625 5185 M -49 0 R D 17625 5265 M -49 0 R D 17625 5345 M -49 0 R D
17625 5425 M -49 0 R D 17625 5506 M -49 0 R D 17625 5586 M -49 0 R D
17625 5746 M -49 0 R D 17625 5826 M -49 0 R D 17625 5906 M -49 0 R D
17625 5986 M -49 0 R D 17625 6066 M -49 0 R D 17625 6146 M -49 0 R D
17625 6226 M -49 0 R D 20 setlinewidth L1 1.000 0.000 0.000 setrgbcolor
12785 1343 M 133 0 R 0 1201 R 167 0 R 166 0 R 0 480 R 167 0 R 167 0 R
0 800 R 166 0 R 167 0 R 0 161 R 167 0 R 166 0 R 167 0 R 167 0 R 0 -481 R
166 0 R 167 0 R 0 641 R 167 0 R 166 0 R 0 -160 R 167 0 R 167 0 R 0 80 R
166 0 R 167 0 R 0 -1201 R 167 0 R 166 0 R 0 -481 R 167 0 R 167 0 R 0 401 R
166 0 R 167 0 R 0 640 R 167 0 R 166 0 R 0 -640 R 167 0 R 167 0 R 0 720 R
39 0 R D L0 0.000 0.000 0.000 setrgbcolor 12785 862 M 133 0 R 0 961 R
167 0 R 166 0 R 167 0 R 167 0 R 0 240 R 166 0 R 167 0 R 0 481 R 167 0 R
166 0 R 0 80 R 167 0 R 167 0 R 0 -881 R 166 0 R 167 0 R 0 -80 R 167 0 R
166 0 R 0 80 R 167 0 R 167 0 R 0 80 R 166 0 R 167 0 R 0 -80 R 167 0 R
166 0 R 0 80 R 167 0 R 167 0 R 0 721 R 166 0 R 167 0 R 0 -561 R 167 0 R
166 0 R 0 320 R 167 0 R 167 0 R 0 -160 R 39 0 R D
1.000 0.000 0.000 setrgbcolor gsave 13170 5666 translate 0 0 M 0.8 dup scale
(16.6<m-M<17.5) show grestore 0.000 0.000 0.000 setrgbcolor
gsave 13170 5105 translate 0 0 M 0.8 dup scale
(15.9<m-M<16.5) show grestore
%%PageTrailer
end
%%PageResources: font Helvetica
%%+ font Symbol
%%+ font AvantGarde-Book
%%Trailer
%%Pages: 1
%%DocumentNeededResources: font Helvetica
%%+ font Symbol
%%+ font AvantGarde-Book
%%EOF
